('C:\\Users\\User\\Documents\\Temp\\rental\\build\\doc_editor\\PYZ-00.pyz',
 [('win32com',
   'c:\\users\\user\\appdata\\local\\programs\\python\\python38-32\\lib\\site-packages\\win32com\\__init__.py',
   'PYMODULE'),
  ('win32com.server.util',
   'c:\\users\\user\\appdata\\local\\programs\\python\\python38-32\\lib\\site-packages\\win32com\\server\\util.py',
   'PYMODULE'),
  ('win32com.server.dispatcher',
   'c:\\users\\user\\appdata\\local\\programs\\python\\python38-32\\lib\\site-packages\\win32com\\server\\dispatcher.py',
   'PYMODULE'),
  ('win32traceutil',
   'c:\\users\\user\\appdata\\local\\programs\\python\\python38-32\\lib\\site-packages\\win32\\lib\\win32traceutil.py',
   'PYMODULE'),
  ('win32com.util',
   'c:\\users\\user\\appdata\\local\\programs\\python\\python38-32\\lib\\site-packages\\win32com\\util.py',
   'PYMODULE'),
  ('win32con',
   'c:\\users\\user\\appdata\\local\\programs\\python\\python38-32\\lib\\site-packages\\win32\\lib\\win32con.py',
   'PYMODULE'),
  ('win32com.server.exception',
   'c:\\users\\user\\appdata\\local\\programs\\python\\python38-32\\lib\\site-packages\\win32com\\server\\exception.py',
   'PYMODULE'),
  ('winerror',
   'c:\\users\\user\\appdata\\local\\programs\\python\\python38-32\\lib\\site-packages\\win32\\lib\\winerror.py',
   'PYMODULE'),
  ('win32com.server.policy',
   'c:\\users\\user\\appdata\\local\\programs\\python\\python38-32\\lib\\site-packages\\win32com\\server\\policy.py',
   'PYMODULE'),
  ('pywintypes',
   'c:\\users\\user\\appdata\\local\\programs\\python\\python38-32\\lib\\site-packages\\win32\\lib\\pywintypes.py',
   'PYMODULE'),
  ('distutils.sysconfig',
   'c:\\users\\user\\appdata\\local\\programs\\python\\python38-32\\lib\\distutils\\sysconfig.py',
   'PYMODULE'),
  ('distutils.text_file',
   'c:\\users\\user\\appdata\\local\\programs\\python\\python38-32\\lib\\distutils\\text_file.py',
   'PYMODULE'),
  ('_osx_support',
   'c:\\users\\user\\appdata\\local\\programs\\python\\python38-32\\lib\\_osx_support.py',
   'PYMODULE'),
  ('distutils.log',
   'c:\\users\\user\\appdata\\local\\programs\\python\\python38-32\\lib\\distutils\\log.py',
   'PYMODULE'),
  ('contextlib',
   'c:\\users\\user\\appdata\\local\\programs\\python\\python38-32\\lib\\contextlib.py',
   'PYMODULE'),
  ('distutils.util',
   'c:\\users\\user\\appdata\\local\\programs\\python\\python38-32\\lib\\distutils\\util.py',
   'PYMODULE'),
  ('distutils.filelist',
   'c:\\users\\user\\appdata\\local\\programs\\python\\python38-32\\lib\\distutils\\filelist.py',
   'PYMODULE'),
  ('distutils.debug',
   'c:\\users\\user\\appdata\\local\\programs\\python\\python38-32\\lib\\distutils\\debug.py',
   'PYMODULE'),
  ('fnmatch',
   'c:\\users\\user\\appdata\\local\\programs\\python\\python38-32\\lib\\fnmatch.py',
   'PYMODULE'),
  ('posixpath',
   'c:\\users\\user\\appdata\\local\\programs\\python\\python38-32\\lib\\posixpath.py',
   'PYMODULE'),
  ('genericpath',
   'c:\\users\\user\\appdata\\local\\programs\\python\\python38-32\\lib\\genericpath.py',
   'PYMODULE'),
  ('stat',
   'c:\\users\\user\\appdata\\local\\programs\\python\\python38-32\\lib\\stat.py',
   'PYMODULE'),
  ('distutils.file_util',
   'c:\\users\\user\\appdata\\local\\programs\\python\\python38-32\\lib\\distutils\\file_util.py',
   'PYMODULE'),
  ('ntpath',
   'c:\\users\\user\\appdata\\local\\programs\\python\\python38-32\\lib\\ntpath.py',
   'PYMODULE'),
  ('distutils.dir_util',
   'c:\\users\\user\\appdata\\local\\programs\\python\\python38-32\\lib\\distutils\\dir_util.py',
   'PYMODULE'),
  ('lib2to3.refactor',
   'c:\\users\\user\\appdata\\local\\programs\\python\\python38-32\\lib\\lib2to3\\refactor.py',
   'PYMODULE'),
  ('multiprocessing',
   'c:\\users\\user\\appdata\\local\\programs\\python\\python38-32\\lib\\multiprocessing\\__init__.py',
   'PYMODULE'),
  ('multiprocessing.context',
   'c:\\users\\user\\appdata\\local\\programs\\python\\python38-32\\lib\\multiprocessing\\context.py',
   'PYMODULE'),
  ('multiprocessing.popen_spawn_win32',
   'c:\\users\\user\\appdata\\local\\programs\\python\\python38-32\\lib\\multiprocessing\\popen_spawn_win32.py',
   'PYMODULE'),
  ('signal',
   'c:\\users\\user\\appdata\\local\\programs\\python\\python38-32\\lib\\signal.py',
   'PYMODULE'),
  ('multiprocessing.popen_forkserver',
   'c:\\users\\user\\appdata\\local\\programs\\python\\python38-32\\lib\\multiprocessing\\popen_forkserver.py',
   'PYMODULE'),
  ('multiprocessing.popen_spawn_posix',
   'c:\\users\\user\\appdata\\local\\programs\\python\\python38-32\\lib\\multiprocessing\\popen_spawn_posix.py',
   'PYMODULE'),
  ('multiprocessing.popen_fork',
   'c:\\users\\user\\appdata\\local\\programs\\python\\python38-32\\lib\\multiprocessing\\popen_fork.py',
   'PYMODULE'),
  ('multiprocessing.sharedctypes',
   'c:\\users\\user\\appdata\\local\\programs\\python\\python38-32\\lib\\multiprocessing\\sharedctypes.py',
   'PYMODULE'),
  ('multiprocessing.heap',
   'c:\\users\\user\\appdata\\local\\programs\\python\\python38-32\\lib\\multiprocessing\\heap.py',
   'PYMODULE'),
  ('bisect',
   'c:\\users\\user\\appdata\\local\\programs\\python\\python38-32\\lib\\bisect.py',
   'PYMODULE'),
  ('ctypes',
   'c:\\users\\user\\appdata\\local\\programs\\python\\python38-32\\lib\\ctypes\\__init__.py',
   'PYMODULE'),
  ('ctypes._endian',
   'c:\\users\\user\\appdata\\local\\programs\\python\\python38-32\\lib\\ctypes\\_endian.py',
   'PYMODULE'),
  ('struct',
   'c:\\users\\user\\appdata\\local\\programs\\python\\python38-32\\lib\\struct.py',
   'PYMODULE'),
  ('multiprocessing.queues',
   'c:\\users\\user\\appdata\\local\\programs\\python\\python38-32\\lib\\multiprocessing\\queues.py',
   'PYMODULE'),
  ('queue',
   'c:\\users\\user\\appdata\\local\\programs\\python\\python38-32\\lib\\queue.py',
   'PYMODULE'),
  ('multiprocessing.synchronize',
   'c:\\users\\user\\appdata\\local\\programs\\python\\python38-32\\lib\\multiprocessing\\synchronize.py',
   'PYMODULE'),
  ('multiprocessing.managers',
   'c:\\users\\user\\appdata\\local\\programs\\python\\python38-32\\lib\\multiprocessing\\managers.py',
   'PYMODULE'),
  ('threading',
   'c:\\users\\user\\appdata\\local\\programs\\python\\python38-32\\lib\\threading.py',
   'PYMODULE'),
  ('_threading_local',
   'c:\\users\\user\\appdata\\local\\programs\\python\\python38-32\\lib\\_threading_local.py',
   'PYMODULE'),
  ('multiprocessing.shared_memory',
   'c:\\users\\user\\appdata\\local\\programs\\python\\python38-32\\lib\\multiprocessing\\shared_memory.py',
   'PYMODULE'),
  ('secrets',
   'c:\\users\\user\\appdata\\local\\programs\\python\\python38-32\\lib\\secrets.py',
   'PYMODULE'),
  ('random',
   'c:\\users\\user\\appdata\\local\\programs\\python\\python38-32\\lib\\random.py',
   'PYMODULE'),
  ('hashlib',
   'c:\\users\\user\\appdata\\local\\programs\\python\\python38-32\\lib\\hashlib.py',
   'PYMODULE'),
  ('hmac',
   'c:\\users\\user\\appdata\\local\\programs\\python\\python38-32\\lib\\hmac.py',
   'PYMODULE'),
  ('base64',
   'c:\\users\\user\\appdata\\local\\programs\\python\\python38-32\\lib\\base64.py',
   'PYMODULE'),
  ('getopt',
   'c:\\users\\user\\appdata\\local\\programs\\python\\python38-32\\lib\\getopt.py',
   'PYMODULE'),
  ('gettext',
   'c:\\users\\user\\appdata\\local\\programs\\python\\python38-32\\lib\\gettext.py',
   'PYMODULE'),
  ('copy',
   'c:\\users\\user\\appdata\\local\\programs\\python\\python38-32\\lib\\copy.py',
   'PYMODULE'),
  ('multiprocessing.pool',
   'c:\\users\\user\\appdata\\local\\programs\\python\\python38-32\\lib\\multiprocessing\\pool.py',
   'PYMODULE'),
  ('multiprocessing.dummy',
   'c:\\users\\user\\appdata\\local\\programs\\python\\python38-32\\lib\\multiprocessing\\dummy\\__init__.py',
   'PYMODULE'),
  ('multiprocessing.dummy.connection',
   'c:\\users\\user\\appdata\\local\\programs\\python\\python38-32\\lib\\multiprocessing\\dummy\\connection.py',
   'PYMODULE'),
  ('multiprocessing.reduction',
   'c:\\users\\user\\appdata\\local\\programs\\python\\python38-32\\lib\\multiprocessing\\reduction.py',
   'PYMODULE'),
  ('socket',
   'c:\\users\\user\\appdata\\local\\programs\\python\\python38-32\\lib\\socket.py',
   'PYMODULE'),
  ('selectors',
   'c:\\users\\user\\appdata\\local\\programs\\python\\python38-32\\lib\\selectors.py',
   'PYMODULE'),
  ('pickle',
   'c:\\users\\user\\appdata\\local\\programs\\python\\python38-32\\lib\\pickle.py',
   'PYMODULE'),
  ('pprint',
   'c:\\users\\user\\appdata\\local\\programs\\python\\python38-32\\lib\\pprint.py',
   'PYMODULE'),
  ('argparse',
   'c:\\users\\user\\appdata\\local\\programs\\python\\python38-32\\lib\\argparse.py',
   'PYMODULE'),
  ('textwrap',
   'c:\\users\\user\\appdata\\local\\programs\\python\\python38-32\\lib\\textwrap.py',
   'PYMODULE'),
  ('doctest',
   'c:\\users\\user\\appdata\\local\\programs\\python\\python38-32\\lib\\doctest.py',
   'PYMODULE'),
  ('unittest',
   'c:\\users\\user\\appdata\\local\\programs\\python\\python38-32\\lib\\unittest\\__init__.py',
   'PYMODULE'),
  ('unittest.signals',
   'c:\\users\\user\\appdata\\local\\programs\\python\\python38-32\\lib\\unittest\\signals.py',
   'PYMODULE'),
  ('unittest.main',
   'c:\\users\\user\\appdata\\local\\programs\\python\\python38-32\\lib\\unittest\\main.py',
   'PYMODULE'),
  ('unittest.runner',
   'c:\\users\\user\\appdata\\local\\programs\\python\\python38-32\\lib\\unittest\\runner.py',
   'PYMODULE'),
  ('unittest.loader',
   'c:\\users\\user\\appdata\\local\\programs\\python\\python38-32\\lib\\unittest\\loader.py',
   'PYMODULE'),
  ('unittest.suite',
   'c:\\users\\user\\appdata\\local\\programs\\python\\python38-32\\lib\\unittest\\suite.py',
   'PYMODULE'),
  ('unittest.case',
   'c:\\users\\user\\appdata\\local\\programs\\python\\python38-32\\lib\\unittest\\case.py',
   'PYMODULE'),
  ('unittest.async_case',
   'c:\\users\\user\\appdata\\local\\programs\\python\\python38-32\\lib\\unittest\\async_case.py',
   'PYMODULE'),
  ('asyncio',
   'c:\\users\\user\\appdata\\local\\programs\\python\\python38-32\\lib\\asyncio\\__init__.py',
   'PYMODULE'),
  ('asyncio.unix_events',
   'c:\\users\\user\\appdata\\local\\programs\\python\\python38-32\\lib\\asyncio\\unix_events.py',
   'PYMODULE'),
  ('asyncio.log',
   'c:\\users\\user\\appdata\\local\\programs\\python\\python38-32\\lib\\asyncio\\log.py',
   'PYMODULE'),
  ('asyncio.windows_events',
   'c:\\users\\user\\appdata\\local\\programs\\python\\python38-32\\lib\\asyncio\\windows_events.py',
   'PYMODULE'),
  ('asyncio.windows_utils',
   'c:\\users\\user\\appdata\\local\\programs\\python\\python38-32\\lib\\asyncio\\windows_utils.py',
   'PYMODULE'),
  ('asyncio.selector_events',
   'c:\\users\\user\\appdata\\local\\programs\\python\\python38-32\\lib\\asyncio\\selector_events.py',
   'PYMODULE'),
  ('ssl',
   'c:\\users\\user\\appdata\\local\\programs\\python\\python38-32\\lib\\ssl.py',
   'PYMODULE'),
  ('calendar',
   'c:\\users\\user\\appdata\\local\\programs\\python\\python38-32\\lib\\calendar.py',
   'PYMODULE'),
  ('asyncio.proactor_events',
   'c:\\users\\user\\appdata\\local\\programs\\python\\python38-32\\lib\\asyncio\\proactor_events.py',
   'PYMODULE'),
  ('asyncio.base_subprocess',
   'c:\\users\\user\\appdata\\local\\programs\\python\\python38-32\\lib\\asyncio\\base_subprocess.py',
   'PYMODULE'),
  ('asyncio.subprocess',
   'c:\\users\\user\\appdata\\local\\programs\\python\\python38-32\\lib\\asyncio\\subprocess.py',
   'PYMODULE'),
  ('asyncio.streams',
   'c:\\users\\user\\appdata\\local\\programs\\python\\python38-32\\lib\\asyncio\\streams.py',
   'PYMODULE'),
  ('asyncio.queues',
   'c:\\users\\user\\appdata\\local\\programs\\python\\python38-32\\lib\\asyncio\\queues.py',
   'PYMODULE'),
  ('asyncio.runners',
   'c:\\users\\user\\appdata\\local\\programs\\python\\python38-32\\lib\\asyncio\\runners.py',
   'PYMODULE'),
  ('asyncio.events',
   'c:\\users\\user\\appdata\\local\\programs\\python\\python38-32\\lib\\asyncio\\events.py',
   'PYMODULE'),
  ('contextvars',
   'c:\\users\\user\\appdata\\local\\programs\\python\\python38-32\\lib\\contextvars.py',
   'PYMODULE'),
  ('asyncio.trsock',
   'c:\\users\\user\\appdata\\local\\programs\\python\\python38-32\\lib\\asyncio\\trsock.py',
   'PYMODULE'),
  ('asyncio.staggered',
   'c:\\users\\user\\appdata\\local\\programs\\python\\python38-32\\lib\\asyncio\\staggered.py',
   'PYMODULE'),
  ('typing',
   'c:\\users\\user\\appdata\\local\\programs\\python\\python38-32\\lib\\typing.py',
   'PYMODULE'),
  ('asyncio.tasks',
   'c:\\users\\user\\appdata\\local\\programs\\python\\python38-32\\lib\\asyncio\\tasks.py',
   'PYMODULE'),
  ('concurrent.futures',
   'c:\\users\\user\\appdata\\local\\programs\\python\\python38-32\\lib\\concurrent\\futures\\__init__.py',
   'PYMODULE'),
  ('concurrent.futures.thread',
   'c:\\users\\user\\appdata\\local\\programs\\python\\python38-32\\lib\\concurrent\\futures\\thread.py',
   'PYMODULE'),
  ('concurrent.futures.process',
   'c:\\users\\user\\appdata\\local\\programs\\python\\python38-32\\lib\\concurrent\\futures\\process.py',
   'PYMODULE'),
  ('concurrent.futures._base',
   'c:\\users\\user\\appdata\\local\\programs\\python\\python38-32\\lib\\concurrent\\futures\\_base.py',
   'PYMODULE'),
  ('concurrent',
   'c:\\users\\user\\appdata\\local\\programs\\python\\python38-32\\lib\\concurrent\\__init__.py',
   'PYMODULE'),
  ('asyncio.base_tasks',
   'c:\\users\\user\\appdata\\local\\programs\\python\\python38-32\\lib\\asyncio\\base_tasks.py',
   'PYMODULE'),
  ('asyncio.locks',
   'c:\\users\\user\\appdata\\local\\programs\\python\\python38-32\\lib\\asyncio\\locks.py',
   'PYMODULE'),
  ('asyncio.sslproto',
   'c:\\users\\user\\appdata\\local\\programs\\python\\python38-32\\lib\\asyncio\\sslproto.py',
   'PYMODULE'),
  ('asyncio.transports',
   'c:\\users\\user\\appdata\\local\\programs\\python\\python38-32\\lib\\asyncio\\transports.py',
   'PYMODULE'),
  ('asyncio.base_events',
   'c:\\users\\user\\appdata\\local\\programs\\python\\python38-32\\lib\\asyncio\\base_events.py',
   'PYMODULE'),
  ('asyncio.protocols',
   'c:\\users\\user\\appdata\\local\\programs\\python\\python38-32\\lib\\asyncio\\protocols.py',
   'PYMODULE'),
  ('asyncio.futures',
   'c:\\users\\user\\appdata\\local\\programs\\python\\python38-32\\lib\\asyncio\\futures.py',
   'PYMODULE'),
  ('asyncio.coroutines',
   'c:\\users\\user\\appdata\\local\\programs\\python\\python38-32\\lib\\asyncio\\coroutines.py',
   'PYMODULE'),
  ('asyncio.base_futures',
   'c:\\users\\user\\appdata\\local\\programs\\python\\python38-32\\lib\\asyncio\\base_futures.py',
   'PYMODULE'),
  ('asyncio.exceptions',
   'c:\\users\\user\\appdata\\local\\programs\\python\\python38-32\\lib\\asyncio\\exceptions.py',
   'PYMODULE'),
  ('asyncio.format_helpers',
   'c:\\users\\user\\appdata\\local\\programs\\python\\python38-32\\lib\\asyncio\\format_helpers.py',
   'PYMODULE'),
  ('asyncio.constants',
   'c:\\users\\user\\appdata\\local\\programs\\python\\python38-32\\lib\\asyncio\\constants.py',
   'PYMODULE'),
  ('unittest.result',
   'c:\\users\\user\\appdata\\local\\programs\\python\\python38-32\\lib\\unittest\\result.py',
   'PYMODULE'),
  ('unittest.util',
   'c:\\users\\user\\appdata\\local\\programs\\python\\python38-32\\lib\\unittest\\util.py',
   'PYMODULE'),
  ('pdb',
   'c:\\users\\user\\appdata\\local\\programs\\python\\python38-32\\lib\\pdb.py',
   'PYMODULE'),
  ('pydoc',
   'c:\\users\\user\\appdata\\local\\programs\\python\\python38-32\\lib\\pydoc.py',
   'PYMODULE'),
  ('webbrowser',
   'c:\\users\\user\\appdata\\local\\programs\\python\\python38-32\\lib\\webbrowser.py',
   'PYMODULE'),
  ('email.message',
   'c:\\users\\user\\appdata\\local\\programs\\python\\python38-32\\lib\\email\\message.py',
   'PYMODULE'),
  ('email.policy',
   'c:\\users\\user\\appdata\\local\\programs\\python\\python38-32\\lib\\email\\policy.py',
   'PYMODULE'),
  ('email.contentmanager',
   'c:\\users\\user\\appdata\\local\\programs\\python\\python38-32\\lib\\email\\contentmanager.py',
   'PYMODULE'),
  ('email.quoprimime',
   'c:\\users\\user\\appdata\\local\\programs\\python\\python38-32\\lib\\email\\quoprimime.py',
   'PYMODULE'),
  ('email.headerregistry',
   'c:\\users\\user\\appdata\\local\\programs\\python\\python38-32\\lib\\email\\headerregistry.py',
   'PYMODULE'),
  ('email._header_value_parser',
   'c:\\users\\user\\appdata\\local\\programs\\python\\python38-32\\lib\\email\\_header_value_parser.py',
   'PYMODULE'),
  ('urllib',
   'c:\\users\\user\\appdata\\local\\programs\\python\\python38-32\\lib\\urllib\\__init__.py',
   'PYMODULE'),
  ('email.iterators',
   'c:\\users\\user\\appdata\\local\\programs\\python\\python38-32\\lib\\email\\iterators.py',
   'PYMODULE'),
  ('email.generator',
   'c:\\users\\user\\appdata\\local\\programs\\python\\python38-32\\lib\\email\\generator.py',
   'PYMODULE'),
  ('email._encoded_words',
   'c:\\users\\user\\appdata\\local\\programs\\python\\python38-32\\lib\\email\\_encoded_words.py',
   'PYMODULE'),
  ('email.charset',
   'c:\\users\\user\\appdata\\local\\programs\\python\\python38-32\\lib\\email\\charset.py',
   'PYMODULE'),
  ('email.encoders',
   'c:\\users\\user\\appdata\\local\\programs\\python\\python38-32\\lib\\email\\encoders.py',
   'PYMODULE'),
  ('email.base64mime',
   'c:\\users\\user\\appdata\\local\\programs\\python\\python38-32\\lib\\email\\base64mime.py',
   'PYMODULE'),
  ('email._policybase',
   'c:\\users\\user\\appdata\\local\\programs\\python\\python38-32\\lib\\email\\_policybase.py',
   'PYMODULE'),
  ('email.header',
   'c:\\users\\user\\appdata\\local\\programs\\python\\python38-32\\lib\\email\\header.py',
   'PYMODULE'),
  ('email.errors',
   'c:\\users\\user\\appdata\\local\\programs\\python\\python38-32\\lib\\email\\errors.py',
   'PYMODULE'),
  ('email.utils',
   'c:\\users\\user\\appdata\\local\\programs\\python\\python38-32\\lib\\email\\utils.py',
   'PYMODULE'),
  ('email._parseaddr',
   'c:\\users\\user\\appdata\\local\\programs\\python\\python38-32\\lib\\email\\_parseaddr.py',
   'PYMODULE'),
  ('email',
   'c:\\users\\user\\appdata\\local\\programs\\python\\python38-32\\lib\\email\\__init__.py',
   'PYMODULE'),
  ('email.parser',
   'c:\\users\\user\\appdata\\local\\programs\\python\\python38-32\\lib\\email\\parser.py',
   'PYMODULE'),
  ('email.feedparser',
   'c:\\users\\user\\appdata\\local\\programs\\python\\python38-32\\lib\\email\\feedparser.py',
   'PYMODULE'),
  ('quopri',
   'c:\\users\\user\\appdata\\local\\programs\\python\\python38-32\\lib\\quopri.py',
   'PYMODULE'),
  ('uu',
   'c:\\users\\user\\appdata\\local\\programs\\python\\python38-32\\lib\\uu.py',
   'PYMODULE'),
  ('optparse',
   'c:\\users\\user\\appdata\\local\\programs\\python\\python38-32\\lib\\optparse.py',
   'PYMODULE'),
  ('http.server',
   'c:\\users\\user\\appdata\\local\\programs\\python\\python38-32\\lib\\http\\server.py',
   'PYMODULE'),
  ('http',
   'c:\\users\\user\\appdata\\local\\programs\\python\\python38-32\\lib\\http\\__init__.py',
   'PYMODULE'),
  ('socketserver',
   'c:\\users\\user\\appdata\\local\\programs\\python\\python38-32\\lib\\socketserver.py',
   'PYMODULE'),
  ('mimetypes',
   'c:\\users\\user\\appdata\\local\\programs\\python\\python38-32\\lib\\mimetypes.py',
   'PYMODULE'),
  ('http.client',
   'c:\\users\\user\\appdata\\local\\programs\\python\\python38-32\\lib\\http\\client.py',
   'PYMODULE'),
  ('html',
   'c:\\users\\user\\appdata\\local\\programs\\python\\python38-32\\lib\\html\\__init__.py',
   'PYMODULE'),
  ('html.entities',
   'c:\\users\\user\\appdata\\local\\programs\\python\\python38-32\\lib\\html\\entities.py',
   'PYMODULE'),
  ('pydoc_data.topics',
   'c:\\users\\user\\appdata\\local\\programs\\python\\python38-32\\lib\\pydoc_data\\topics.py',
   'PYMODULE'),
  ('pydoc_data',
   'c:\\users\\user\\appdata\\local\\programs\\python\\python38-32\\lib\\pydoc_data\\__init__.py',
   'PYMODULE'),
  ('tty',
   'c:\\users\\user\\appdata\\local\\programs\\python\\python38-32\\lib\\tty.py',
   'PYMODULE'),
  ('urllib.parse',
   'c:\\users\\user\\appdata\\local\\programs\\python\\python38-32\\lib\\urllib\\parse.py',
   'PYMODULE'),
  ('tokenize',
   'c:\\users\\user\\appdata\\local\\programs\\python\\python38-32\\lib\\tokenize.py',
   'PYMODULE'),
  ('token',
   'c:\\users\\user\\appdata\\local\\programs\\python\\python38-32\\lib\\token.py',
   'PYMODULE'),
  ('sysconfig',
   'c:\\users\\user\\appdata\\local\\programs\\python\\python38-32\\lib\\sysconfig.py',
   'PYMODULE'),
  ('platform',
   'c:\\users\\user\\appdata\\local\\programs\\python\\python38-32\\lib\\platform.py',
   'PYMODULE'),
  ('plistlib',
   'c:\\users\\user\\appdata\\local\\programs\\python\\python38-32\\lib\\plistlib.py',
   'PYMODULE'),
  ('xml.parsers.expat',
   'c:\\users\\user\\appdata\\local\\programs\\python\\python38-32\\lib\\xml\\parsers\\expat.py',
   'PYMODULE'),
  ('xml.parsers',
   'c:\\users\\user\\appdata\\local\\programs\\python\\python38-32\\lib\\xml\\parsers\\__init__.py',
   'PYMODULE'),
  ('xml',
   'c:\\users\\user\\appdata\\local\\programs\\python\\python38-32\\lib\\xml\\__init__.py',
   'PYMODULE'),
  ('xml.sax.expatreader',
   'c:\\users\\user\\appdata\\local\\programs\\python\\python38-32\\lib\\xml\\sax\\expatreader.py',
   'PYMODULE'),
  ('xml.sax.saxutils',
   'c:\\users\\user\\appdata\\local\\programs\\python\\python38-32\\lib\\xml\\sax\\saxutils.py',
   'PYMODULE'),
  ('urllib.request',
   'c:\\users\\user\\appdata\\local\\programs\\python\\python38-32\\lib\\urllib\\request.py',
   'PYMODULE'),
  ('getpass',
   'c:\\users\\user\\appdata\\local\\programs\\python\\python38-32\\lib\\getpass.py',
   'PYMODULE'),
  ('nturl2path',
   'c:\\users\\user\\appdata\\local\\programs\\python\\python38-32\\lib\\nturl2path.py',
   'PYMODULE'),
  ('ftplib',
   'c:\\users\\user\\appdata\\local\\programs\\python\\python38-32\\lib\\ftplib.py',
   'PYMODULE'),
  ('netrc',
   'c:\\users\\user\\appdata\\local\\programs\\python\\python38-32\\lib\\netrc.py',
   'PYMODULE'),
  ('http.cookiejar',
   'c:\\users\\user\\appdata\\local\\programs\\python\\python38-32\\lib\\http\\cookiejar.py',
   'PYMODULE'),
  ('urllib.response',
   'c:\\users\\user\\appdata\\local\\programs\\python\\python38-32\\lib\\urllib\\response.py',
   'PYMODULE'),
  ('urllib.error',
   'c:\\users\\user\\appdata\\local\\programs\\python\\python38-32\\lib\\urllib\\error.py',
   'PYMODULE'),
  ('xml.sax',
   'c:\\users\\user\\appdata\\local\\programs\\python\\python38-32\\lib\\xml\\sax\\__init__.py',
   'PYMODULE'),
  ('xml.sax.handler',
   'c:\\users\\user\\appdata\\local\\programs\\python\\python38-32\\lib\\xml\\sax\\handler.py',
   'PYMODULE'),
  ('xml.sax._exceptions',
   'c:\\users\\user\\appdata\\local\\programs\\python\\python38-32\\lib\\xml\\sax\\_exceptions.py',
   'PYMODULE'),
  ('xml.sax.xmlreader',
   'c:\\users\\user\\appdata\\local\\programs\\python\\python38-32\\lib\\xml\\sax\\xmlreader.py',
   'PYMODULE'),
  ('importlib.machinery',
   'c:\\users\\user\\appdata\\local\\programs\\python\\python38-32\\lib\\importlib\\machinery.py',
   'PYMODULE'),
  ('importlib',
   'c:\\users\\user\\appdata\\local\\programs\\python\\python38-32\\lib\\importlib\\__init__.py',
   'PYMODULE'),
  ('importlib._bootstrap_external',
   'c:\\users\\user\\appdata\\local\\programs\\python\\python38-32\\lib\\importlib\\_bootstrap_external.py',
   'PYMODULE'),
  ('importlib.metadata',
   'c:\\users\\user\\appdata\\local\\programs\\python\\python38-32\\lib\\importlib\\metadata.py',
   'PYMODULE'),
  ('importlib.abc',
   'c:\\users\\user\\appdata\\local\\programs\\python\\python38-32\\lib\\importlib\\abc.py',
   'PYMODULE'),
  ('zipfile',
   'c:\\users\\user\\appdata\\local\\programs\\python\\python38-32\\lib\\zipfile.py',
   'PYMODULE'),
  ('lzma',
   'c:\\users\\user\\appdata\\local\\programs\\python\\python38-32\\lib\\lzma.py',
   'PYMODULE'),
  ('_compression',
   'c:\\users\\user\\appdata\\local\\programs\\python\\python38-32\\lib\\_compression.py',
   'PYMODULE'),
  ('bz2',
   'c:\\users\\user\\appdata\\local\\programs\\python\\python38-32\\lib\\bz2.py',
   'PYMODULE'),
  ('pathlib',
   'c:\\users\\user\\appdata\\local\\programs\\python\\python38-32\\lib\\pathlib.py',
   'PYMODULE'),
  ('importlib._bootstrap',
   'c:\\users\\user\\appdata\\local\\programs\\python\\python38-32\\lib\\importlib\\_bootstrap.py',
   'PYMODULE'),
  ('runpy',
   'c:\\users\\user\\appdata\\local\\programs\\python\\python38-32\\lib\\runpy.py',
   'PYMODULE'),
  ('shlex',
   'c:\\users\\user\\appdata\\local\\programs\\python\\python38-32\\lib\\shlex.py',
   'PYMODULE'),
  ('glob',
   'c:\\users\\user\\appdata\\local\\programs\\python\\python38-32\\lib\\glob.py',
   'PYMODULE'),
  ('code',
   'c:\\users\\user\\appdata\\local\\programs\\python\\python38-32\\lib\\code.py',
   'PYMODULE'),
  ('codeop',
   'c:\\users\\user\\appdata\\local\\programs\\python\\python38-32\\lib\\codeop.py',
   'PYMODULE'),
  ('dis',
   'c:\\users\\user\\appdata\\local\\programs\\python\\python38-32\\lib\\dis.py',
   'PYMODULE'),
  ('opcode',
   'c:\\users\\user\\appdata\\local\\programs\\python\\python38-32\\lib\\opcode.py',
   'PYMODULE'),
  ('bdb',
   'c:\\users\\user\\appdata\\local\\programs\\python\\python38-32\\lib\\bdb.py',
   'PYMODULE'),
  ('cmd',
   'c:\\users\\user\\appdata\\local\\programs\\python\\python38-32\\lib\\cmd.py',
   'PYMODULE'),
  ('inspect',
   'c:\\users\\user\\appdata\\local\\programs\\python\\python38-32\\lib\\inspect.py',
   'PYMODULE'),
  ('ast',
   'c:\\users\\user\\appdata\\local\\programs\\python\\python38-32\\lib\\ast.py',
   'PYMODULE'),
  ('difflib',
   'c:\\users\\user\\appdata\\local\\programs\\python\\python38-32\\lib\\difflib.py',
   'PYMODULE'),
  ('__future__',
   'c:\\users\\user\\appdata\\local\\programs\\python\\python38-32\\lib\\__future__.py',
   'PYMODULE'),
  ('_compat_pickle',
   'c:\\users\\user\\appdata\\local\\programs\\python\\python38-32\\lib\\_compat_pickle.py',
   'PYMODULE'),
  ('multiprocessing.forkserver',
   'c:\\users\\user\\appdata\\local\\programs\\python\\python38-32\\lib\\multiprocessing\\forkserver.py',
   'PYMODULE'),
  ('multiprocessing.spawn',
   'c:\\users\\user\\appdata\\local\\programs\\python\\python38-32\\lib\\multiprocessing\\spawn.py',
   'PYMODULE'),
  ('multiprocessing.resource_tracker',
   'c:\\users\\user\\appdata\\local\\programs\\python\\python38-32\\lib\\multiprocessing\\resource_tracker.py',
   'PYMODULE'),
  ('multiprocessing.connection',
   'c:\\users\\user\\appdata\\local\\programs\\python\\python38-32\\lib\\multiprocessing\\connection.py',
   'PYMODULE'),
  ('xmlrpc.client',
   'c:\\users\\user\\appdata\\local\\programs\\python\\python38-32\\lib\\xmlrpc\\client.py',
   'PYMODULE'),
  ('xmlrpc',
   'c:\\users\\user\\appdata\\local\\programs\\python\\python38-32\\lib\\xmlrpc\\__init__.py',
   'PYMODULE'),
  ('gzip',
   'c:\\users\\user\\appdata\\local\\programs\\python\\python38-32\\lib\\gzip.py',
   'PYMODULE'),
  ('decimal',
   'c:\\users\\user\\appdata\\local\\programs\\python\\python38-32\\lib\\decimal.py',
   'PYMODULE'),
  ('_pydecimal',
   'c:\\users\\user\\appdata\\local\\programs\\python\\python38-32\\lib\\_pydecimal.py',
   'PYMODULE'),
  ('numbers',
   'c:\\users\\user\\appdata\\local\\programs\\python\\python38-32\\lib\\numbers.py',
   'PYMODULE'),
  ('multiprocessing.resource_sharer',
   'c:\\users\\user\\appdata\\local\\programs\\python\\python38-32\\lib\\multiprocessing\\resource_sharer.py',
   'PYMODULE'),
  ('multiprocessing.util',
   'c:\\users\\user\\appdata\\local\\programs\\python\\python38-32\\lib\\multiprocessing\\util.py',
   'PYMODULE'),
  ('test.support',
   'c:\\users\\user\\appdata\\local\\programs\\python\\python38-32\\lib\\test\\support\\__init__.py',
   'PYMODULE'),
  ('distutils.ccompiler',
   'c:\\users\\user\\appdata\\local\\programs\\python\\python38-32\\lib\\distutils\\ccompiler.py',
   'PYMODULE'),
  ('distutils.fancy_getopt',
   'c:\\users\\user\\appdata\\local\\programs\\python\\python38-32\\lib\\distutils\\fancy_getopt.py',
   'PYMODULE'),
  ('tracemalloc',
   'c:\\users\\user\\appdata\\local\\programs\\python\\python38-32\\lib\\tracemalloc.py',
   'PYMODULE'),
  ('tkinter',
   'c:\\users\\user\\appdata\\local\\programs\\python\\python38-32\\lib\\tkinter\\__init__.py',
   'PYMODULE'),
  ('tkinter.constants',
   'c:\\users\\user\\appdata\\local\\programs\\python\\python38-32\\lib\\tkinter\\constants.py',
   'PYMODULE'),
  ('ctypes.util',
   'c:\\users\\user\\appdata\\local\\programs\\python\\python38-32\\lib\\ctypes\\util.py',
   'PYMODULE'),
  ('ctypes._aix',
   'c:\\users\\user\\appdata\\local\\programs\\python\\python38-32\\lib\\ctypes\\_aix.py',
   'PYMODULE'),
  ('ctypes.macholib.dyld',
   'c:\\users\\user\\appdata\\local\\programs\\python\\python38-32\\lib\\ctypes\\macholib\\dyld.py',
   'PYMODULE'),
  ('ctypes.macholib',
   'c:\\users\\user\\appdata\\local\\programs\\python\\python38-32\\lib\\ctypes\\macholib\\__init__.py',
   'PYMODULE'),
  ('ctypes.macholib.dylib',
   'c:\\users\\user\\appdata\\local\\programs\\python\\python38-32\\lib\\ctypes\\macholib\\dylib.py',
   'PYMODULE'),
  ('ctypes.macholib.framework',
   'c:\\users\\user\\appdata\\local\\programs\\python\\python38-32\\lib\\ctypes\\macholib\\framework.py',
   'PYMODULE'),
  ('ctypes.wintypes',
   'c:\\users\\user\\appdata\\local\\programs\\python\\python38-32\\lib\\ctypes\\wintypes.py',
   'PYMODULE'),
  ('test.support.testresult',
   'c:\\users\\user\\appdata\\local\\programs\\python\\python38-32\\lib\\test\\support\\testresult.py',
   'PYMODULE'),
  ('xml.etree.ElementTree',
   'c:\\users\\user\\appdata\\local\\programs\\python\\python38-32\\lib\\xml\\etree\\ElementTree.py',
   'PYMODULE'),
  ('xml.etree.cElementTree',
   'c:\\users\\user\\appdata\\local\\programs\\python\\python38-32\\lib\\xml\\etree\\cElementTree.py',
   'PYMODULE'),
  ('xml.etree.ElementInclude',
   'c:\\users\\user\\appdata\\local\\programs\\python\\python38-32\\lib\\xml\\etree\\ElementInclude.py',
   'PYMODULE'),
  ('xml.etree.ElementPath',
   'c:\\users\\user\\appdata\\local\\programs\\python\\python38-32\\lib\\xml\\etree\\ElementPath.py',
   'PYMODULE'),
  ('xml.etree',
   'c:\\users\\user\\appdata\\local\\programs\\python\\python38-32\\lib\\xml\\etree\\__init__.py',
   'PYMODULE'),
  ('nntplib',
   'c:\\users\\user\\appdata\\local\\programs\\python\\python38-32\\lib\\nntplib.py',
   'PYMODULE'),
  ('logging.handlers',
   'c:\\users\\user\\appdata\\local\\programs\\python\\python38-32\\lib\\logging\\handlers.py',
   'PYMODULE'),
  ('win32evtlogutil',
   'c:\\users\\user\\appdata\\local\\programs\\python\\python38-32\\lib\\site-packages\\win32\\lib\\win32evtlogutil.py',
   'PYMODULE'),
  ('smtplib',
   'c:\\users\\user\\appdata\\local\\programs\\python\\python38-32\\lib\\smtplib.py',
   'PYMODULE'),
  ('test',
   'c:\\users\\user\\appdata\\local\\programs\\python\\python38-32\\lib\\test\\__init__.py',
   'PYMODULE'),
  ('multiprocessing.process',
   'c:\\users\\user\\appdata\\local\\programs\\python\\python38-32\\lib\\multiprocessing\\process.py',
   'PYMODULE'),
  ('lib2to3.btm_matcher',
   'c:\\users\\user\\appdata\\local\\programs\\python\\python38-32\\lib\\lib2to3\\btm_matcher.py',
   'PYMODULE'),
  ('lib2to3.btm_utils',
   'c:\\users\\user\\appdata\\local\\programs\\python\\python38-32\\lib\\lib2to3\\btm_utils.py',
   'PYMODULE'),
  ('lib2to3.pgen2.grammar',
   'c:\\users\\user\\appdata\\local\\programs\\python\\python38-32\\lib\\lib2to3\\pgen2\\grammar.py',
   'PYMODULE'),
  ('lib2to3.pygram',
   'c:\\users\\user\\appdata\\local\\programs\\python\\python38-32\\lib\\lib2to3\\pygram.py',
   'PYMODULE'),
  ('lib2to3.pytree',
   'c:\\users\\user\\appdata\\local\\programs\\python\\python38-32\\lib\\lib2to3\\pytree.py',
   'PYMODULE'),
  ('lib2to3',
   'c:\\users\\user\\appdata\\local\\programs\\python\\python38-32\\lib\\lib2to3\\__init__.py',
   'PYMODULE'),
  ('lib2to3.patcomp',
   'c:\\users\\user\\appdata\\local\\programs\\python\\python38-32\\lib\\lib2to3\\patcomp.py',
   'PYMODULE'),
  ('lib2to3.pgen2.parse',
   'c:\\users\\user\\appdata\\local\\programs\\python\\python38-32\\lib\\lib2to3\\pgen2\\parse.py',
   'PYMODULE'),
  ('lib2to3.pgen2.literals',
   'c:\\users\\user\\appdata\\local\\programs\\python\\python38-32\\lib\\lib2to3\\pgen2\\literals.py',
   'PYMODULE'),
  ('lib2to3.fixer_util',
   'c:\\users\\user\\appdata\\local\\programs\\python\\python38-32\\lib\\lib2to3\\fixer_util.py',
   'PYMODULE'),
  ('lib2to3.pgen2.token',
   'c:\\users\\user\\appdata\\local\\programs\\python\\python38-32\\lib\\lib2to3\\pgen2\\token.py',
   'PYMODULE'),
  ('lib2to3.pgen2.tokenize',
   'c:\\users\\user\\appdata\\local\\programs\\python\\python38-32\\lib\\lib2to3\\pgen2\\tokenize.py',
   'PYMODULE'),
  ('lib2to3.pgen2.driver',
   'c:\\users\\user\\appdata\\local\\programs\\python\\python38-32\\lib\\lib2to3\\pgen2\\driver.py',
   'PYMODULE'),
  ('lib2to3.pgen2.pgen',
   'c:\\users\\user\\appdata\\local\\programs\\python\\python38-32\\lib\\lib2to3\\pgen2\\pgen.py',
   'PYMODULE'),
  ('lib2to3.pgen2',
   'c:\\users\\user\\appdata\\local\\programs\\python\\python38-32\\lib\\lib2to3\\pgen2\\__init__.py',
   'PYMODULE'),
  ('logging',
   'c:\\users\\user\\appdata\\local\\programs\\python\\python38-32\\lib\\logging\\__init__.py',
   'PYMODULE'),
  ('pkgutil',
   'c:\\users\\user\\appdata\\local\\programs\\python\\python38-32\\lib\\pkgutil.py',
   'PYMODULE'),
  ('zipimport',
   'c:\\users\\user\\appdata\\local\\programs\\python\\python38-32\\lib\\zipimport.py',
   'PYMODULE'),
  ('py_compile',
   'c:\\users\\user\\appdata\\local\\programs\\python\\python38-32\\lib\\py_compile.py',
   'PYMODULE'),
  ('subprocess',
   'c:\\users\\user\\appdata\\local\\programs\\python\\python38-32\\lib\\subprocess.py',
   'PYMODULE'),
  ('distutils.spawn',
   'c:\\users\\user\\appdata\\local\\programs\\python\\python38-32\\lib\\distutils\\spawn.py',
   'PYMODULE'),
  ('distutils.dep_util',
   'c:\\users\\user\\appdata\\local\\programs\\python\\python38-32\\lib\\distutils\\dep_util.py',
   'PYMODULE'),
  ('string',
   'c:\\users\\user\\appdata\\local\\programs\\python\\python38-32\\lib\\string.py',
   'PYMODULE'),
  ('importlib.util',
   'c:\\users\\user\\appdata\\local\\programs\\python\\python38-32\\lib\\importlib\\util.py',
   'PYMODULE'),
  ('distutils',
   'c:\\users\\user\\appdata\\local\\programs\\python\\python38-32\\lib\\distutils\\__init__.py',
   'PYMODULE'),
  ('distutils.errors',
   'c:\\users\\user\\appdata\\local\\programs\\python\\python38-32\\lib\\distutils\\errors.py',
   'PYMODULE'),
  ('win32com.server',
   'c:\\users\\user\\appdata\\local\\programs\\python\\python38-32\\lib\\site-packages\\win32com\\server\\__init__.py',
   'PYMODULE'),
  ('win32com.universal',
   'c:\\users\\user\\appdata\\local\\programs\\python\\python38-32\\lib\\site-packages\\win32com\\universal.py',
   'PYMODULE'),
  ('win32com.client.build',
   'c:\\users\\user\\appdata\\local\\programs\\python\\python38-32\\lib\\site-packages\\win32com\\client\\build.py',
   'PYMODULE'),
  ('win32com.client.gencache',
   'c:\\users\\user\\appdata\\local\\programs\\python\\python38-32\\lib\\site-packages\\win32com\\client\\gencache.py',
   'PYMODULE'),
  ('win32com.client.genpy',
   'c:\\users\\user\\appdata\\local\\programs\\python\\python38-32\\lib\\site-packages\\win32com\\client\\genpy.py',
   'PYMODULE'),
  ('win32com.client.makepy',
   'c:\\users\\user\\appdata\\local\\programs\\python\\python38-32\\lib\\site-packages\\win32com\\client\\makepy.py',
   'PYMODULE'),
  ('pywin.dialogs.status',
   'c:\\users\\user\\appdata\\local\\programs\\python\\python38-32\\lib\\site-packages\\Pythonwin\\pywin\\dialogs\\status.py',
   'PYMODULE'),
  ('pywin.mfc.thread',
   'c:\\users\\user\\appdata\\local\\programs\\python\\python38-32\\lib\\site-packages\\Pythonwin\\pywin\\mfc\\thread.py',
   'PYMODULE'),
  ('pywin.mfc.object',
   'c:\\users\\user\\appdata\\local\\programs\\python\\python38-32\\lib\\site-packages\\Pythonwin\\pywin\\mfc\\object.py',
   'PYMODULE'),
  ('pywin.mfc.dialog',
   'c:\\users\\user\\appdata\\local\\programs\\python\\python38-32\\lib\\site-packages\\Pythonwin\\pywin\\mfc\\dialog.py',
   'PYMODULE'),
  ('pywin.mfc.window',
   'c:\\users\\user\\appdata\\local\\programs\\python\\python38-32\\lib\\site-packages\\Pythonwin\\pywin\\mfc\\window.py',
   'PYMODULE'),
  ('pywin.mfc',
   'c:\\users\\user\\appdata\\local\\programs\\python\\python38-32\\lib\\site-packages\\Pythonwin\\pywin\\mfc\\__init__.py',
   'PYMODULE'),
  ('pywin.dialogs',
   'c:\\users\\user\\appdata\\local\\programs\\python\\python38-32\\lib\\site-packages\\Pythonwin\\pywin\\dialogs\\__init__.py',
   'PYMODULE'),
  ('pywin',
   'c:\\users\\user\\appdata\\local\\programs\\python\\python38-32\\lib\\site-packages\\Pythonwin\\pywin\\__init__.py',
   'PYMODULE'),
  ('win32com.client.selecttlb',
   'c:\\users\\user\\appdata\\local\\programs\\python\\python38-32\\lib\\site-packages\\win32com\\client\\selecttlb.py',
   'PYMODULE'),
  ('pywin.dialogs.list',
   'c:\\users\\user\\appdata\\local\\programs\\python\\python38-32\\lib\\site-packages\\Pythonwin\\pywin\\dialogs\\list.py',
   'PYMODULE'),
  ('commctrl',
   'c:\\users\\user\\appdata\\local\\programs\\python\\python38-32\\lib\\site-packages\\win32\\lib\\commctrl.py',
   'PYMODULE'),
  ('win32com.client.CLSIDToClass',
   'c:\\users\\user\\appdata\\local\\programs\\python\\python38-32\\lib\\site-packages\\win32com\\client\\CLSIDToClass.py',
   'PYMODULE'),
  ('win32com.client.util',
   'c:\\users\\user\\appdata\\local\\programs\\python\\python38-32\\lib\\site-packages\\win32com\\client\\util.py',
   'PYMODULE'),
  ('imp',
   'c:\\users\\user\\appdata\\local\\programs\\python\\python38-32\\lib\\imp.py',
   'PYMODULE'),
  ('pythoncom',
   'c:\\users\\user\\appdata\\local\\programs\\python\\python38-32\\lib\\site-packages\\pythoncom.py',
   'PYMODULE'),
  ('tempfile',
   'c:\\users\\user\\appdata\\local\\programs\\python\\python38-32\\lib\\tempfile.py',
   'PYMODULE'),
  ('shutil',
   'c:\\users\\user\\appdata\\local\\programs\\python\\python38-32\\lib\\shutil.py',
   'PYMODULE'),
  ('tarfile',
   'c:\\users\\user\\appdata\\local\\programs\\python\\python38-32\\lib\\tarfile.py',
   'PYMODULE'),
  ('_py_abc',
   'c:\\users\\user\\appdata\\local\\programs\\python\\python38-32\\lib\\_py_abc.py',
   'PYMODULE'),
  ('stringprep',
   'c:\\users\\user\\appdata\\local\\programs\\python\\python38-32\\lib\\stringprep.py',
   'PYMODULE'),
  ('xlrd',
   'c:\\users\\user\\appdata\\local\\programs\\python\\python38-32\\lib\\site-packages\\xlrd\\__init__.py',
   'PYMODULE'),
  ('xlrd.xlsx',
   'c:\\users\\user\\appdata\\local\\programs\\python\\python38-32\\lib\\site-packages\\xlrd\\xlsx.py',
   'PYMODULE'),
  ('lxml',
   'c:\\users\\user\\appdata\\local\\programs\\python\\python38-32\\lib\\site-packages\\lxml\\__init__.py',
   'PYMODULE'),
  ('xlrd.xldate',
   'c:\\users\\user\\appdata\\local\\programs\\python\\python38-32\\lib\\site-packages\\xlrd\\xldate.py',
   'PYMODULE'),
  ('xlrd.info',
   'c:\\users\\user\\appdata\\local\\programs\\python\\python38-32\\lib\\site-packages\\xlrd\\info.py',
   'PYMODULE'),
  ('xlrd.formula',
   'c:\\users\\user\\appdata\\local\\programs\\python\\python38-32\\lib\\site-packages\\xlrd\\formula.py',
   'PYMODULE'),
  ('xlrd.book',
   'c:\\users\\user\\appdata\\local\\programs\\python\\python38-32\\lib\\site-packages\\xlrd\\book.py',
   'PYMODULE'),
  ('xlrd.sheet',
   'c:\\users\\user\\appdata\\local\\programs\\python\\python38-32\\lib\\site-packages\\xlrd\\sheet.py',
   'PYMODULE'),
  ('xlrd.formatting',
   'c:\\users\\user\\appdata\\local\\programs\\python\\python38-32\\lib\\site-packages\\xlrd\\formatting.py',
   'PYMODULE'),
  ('xlrd.compdoc',
   'c:\\users\\user\\appdata\\local\\programs\\python\\python38-32\\lib\\site-packages\\xlrd\\compdoc.py',
   'PYMODULE'),
  ('xlrd.biffh',
   'c:\\users\\user\\appdata\\local\\programs\\python\\python38-32\\lib\\site-packages\\xlrd\\biffh.py',
   'PYMODULE'),
  ('xlrd.timemachine',
   'c:\\users\\user\\appdata\\local\\programs\\python\\python38-32\\lib\\site-packages\\xlrd\\timemachine.py',
   'PYMODULE'),
  ('configparser',
   'c:\\users\\user\\appdata\\local\\programs\\python\\python38-32\\lib\\configparser.py',
   'PYMODULE'),
  ('datetime',
   'c:\\users\\user\\appdata\\local\\programs\\python\\python38-32\\lib\\datetime.py',
   'PYMODULE'),
  ('_strptime',
   'c:\\users\\user\\appdata\\local\\programs\\python\\python38-32\\lib\\_strptime.py',
   'PYMODULE'),
  ('docx',
   'c:\\users\\user\\appdata\\local\\programs\\python\\python38-32\\lib\\site-packages\\docx\\__init__.py',
   'PYMODULE'),
  ('docx.parts.styles',
   'c:\\users\\user\\appdata\\local\\programs\\python\\python38-32\\lib\\site-packages\\docx\\parts\\styles.py',
   'PYMODULE'),
  ('docx.parts',
   'c:\\users\\user\\appdata\\local\\programs\\python\\python38-32\\lib\\site-packages\\docx\\parts\\__init__.py',
   'PYMODULE'),
  ('docx.styles.styles',
   'c:\\users\\user\\appdata\\local\\programs\\python\\python38-32\\lib\\site-packages\\docx\\styles\\styles.py',
   'PYMODULE'),
  ('docx.styles.style',
   'c:\\users\\user\\appdata\\local\\programs\\python\\python38-32\\lib\\site-packages\\docx\\styles\\style.py',
   'PYMODULE'),
  ('docx.text.parfmt',
   'c:\\users\\user\\appdata\\local\\programs\\python\\python38-32\\lib\\site-packages\\docx\\text\\parfmt.py',
   'PYMODULE'),
  ('docx.text',
   'c:\\users\\user\\appdata\\local\\programs\\python\\python38-32\\lib\\site-packages\\docx\\text\\__init__.py',
   'PYMODULE'),
  ('docx.text.tabstops',
   'c:\\users\\user\\appdata\\local\\programs\\python\\python38-32\\lib\\site-packages\\docx\\text\\tabstops.py',
   'PYMODULE'),
  ('docx.enum.text',
   'c:\\users\\user\\appdata\\local\\programs\\python\\python38-32\\lib\\site-packages\\docx\\enum\\text.py',
   'PYMODULE'),
  ('docx.enum',
   'c:\\users\\user\\appdata\\local\\programs\\python\\python38-32\\lib\\site-packages\\docx\\enum\\__init__.py',
   'PYMODULE'),
  ('docx.enum.base',
   'c:\\users\\user\\appdata\\local\\programs\\python\\python38-32\\lib\\site-packages\\docx\\enum\\base.py',
   'PYMODULE'),
  ('docx.exceptions',
   'c:\\users\\user\\appdata\\local\\programs\\python\\python38-32\\lib\\site-packages\\docx\\exceptions.py',
   'PYMODULE'),
  ('docx.text.font',
   'c:\\users\\user\\appdata\\local\\programs\\python\\python38-32\\lib\\site-packages\\docx\\text\\font.py',
   'PYMODULE'),
  ('docx.dml.color',
   'c:\\users\\user\\appdata\\local\\programs\\python\\python38-32\\lib\\site-packages\\docx\\dml\\color.py',
   'PYMODULE'),
  ('docx.dml',
   'c:\\users\\user\\appdata\\local\\programs\\python\\python38-32\\lib\\site-packages\\docx\\dml\\__init__.py',
   'PYMODULE'),
  ('docx.oxml.simpletypes',
   'c:\\users\\user\\appdata\\local\\programs\\python\\python38-32\\lib\\site-packages\\docx\\oxml\\simpletypes.py',
   'PYMODULE'),
  ('docx.enum.dml',
   'c:\\users\\user\\appdata\\local\\programs\\python\\python38-32\\lib\\site-packages\\docx\\enum\\dml.py',
   'PYMODULE'),
  ('docx.enum.style',
   'c:\\users\\user\\appdata\\local\\programs\\python\\python38-32\\lib\\site-packages\\docx\\enum\\style.py',
   'PYMODULE'),
  ('docx.styles.latent',
   'c:\\users\\user\\appdata\\local\\programs\\python\\python38-32\\lib\\site-packages\\docx\\styles\\latent.py',
   'PYMODULE'),
  ('docx.styles',
   'c:\\users\\user\\appdata\\local\\programs\\python\\python38-32\\lib\\site-packages\\docx\\styles\\__init__.py',
   'PYMODULE'),
  ('docx.shared',
   'c:\\users\\user\\appdata\\local\\programs\\python\\python38-32\\lib\\site-packages\\docx\\shared.py',
   'PYMODULE'),
  ('docx.oxml',
   'c:\\users\\user\\appdata\\local\\programs\\python\\python38-32\\lib\\site-packages\\docx\\oxml\\__init__.py',
   'PYMODULE'),
  ('docx.oxml.text.run',
   'c:\\users\\user\\appdata\\local\\programs\\python\\python38-32\\lib\\site-packages\\docx\\oxml\\text\\run.py',
   'PYMODULE'),
  ('docx.oxml.text',
   'c:\\users\\user\\appdata\\local\\programs\\python\\python38-32\\lib\\site-packages\\docx\\oxml\\text\\__init__.py',
   'PYMODULE'),
  ('docx.oxml.xmlchemy',
   'c:\\users\\user\\appdata\\local\\programs\\python\\python38-32\\lib\\site-packages\\docx\\oxml\\xmlchemy.py',
   'PYMODULE'),
  ('docx.oxml.exceptions',
   'c:\\users\\user\\appdata\\local\\programs\\python\\python38-32\\lib\\site-packages\\docx\\oxml\\exceptions.py',
   'PYMODULE'),
  ('docx.compat',
   'c:\\users\\user\\appdata\\local\\programs\\python\\python38-32\\lib\\site-packages\\docx\\compat.py',
   'PYMODULE'),
  ('docx.oxml.text.parfmt',
   'c:\\users\\user\\appdata\\local\\programs\\python\\python38-32\\lib\\site-packages\\docx\\oxml\\text\\parfmt.py',
   'PYMODULE'),
  ('docx.oxml.text.paragraph',
   'c:\\users\\user\\appdata\\local\\programs\\python\\python38-32\\lib\\site-packages\\docx\\oxml\\text\\paragraph.py',
   'PYMODULE'),
  ('docx.oxml.text.font',
   'c:\\users\\user\\appdata\\local\\programs\\python\\python38-32\\lib\\site-packages\\docx\\oxml\\text\\font.py',
   'PYMODULE'),
  ('docx.oxml.table',
   'c:\\users\\user\\appdata\\local\\programs\\python\\python38-32\\lib\\site-packages\\docx\\oxml\\table.py',
   'PYMODULE'),
  ('docx.enum.table',
   'c:\\users\\user\\appdata\\local\\programs\\python\\python38-32\\lib\\site-packages\\docx\\enum\\table.py',
   'PYMODULE'),
  ('docx.oxml.styles',
   'c:\\users\\user\\appdata\\local\\programs\\python\\python38-32\\lib\\site-packages\\docx\\oxml\\styles.py',
   'PYMODULE'),
  ('docx.oxml.shape',
   'c:\\users\\user\\appdata\\local\\programs\\python\\python38-32\\lib\\site-packages\\docx\\oxml\\shape.py',
   'PYMODULE'),
  ('docx.oxml.settings',
   'c:\\users\\user\\appdata\\local\\programs\\python\\python38-32\\lib\\site-packages\\docx\\oxml\\settings.py',
   'PYMODULE'),
  ('docx.oxml.section',
   'c:\\users\\user\\appdata\\local\\programs\\python\\python38-32\\lib\\site-packages\\docx\\oxml\\section.py',
   'PYMODULE'),
  ('docx.enum.section',
   'c:\\users\\user\\appdata\\local\\programs\\python\\python38-32\\lib\\site-packages\\docx\\enum\\section.py',
   'PYMODULE'),
  ('docx.oxml.numbering',
   'c:\\users\\user\\appdata\\local\\programs\\python\\python38-32\\lib\\site-packages\\docx\\oxml\\numbering.py',
   'PYMODULE'),
  ('docx.oxml.document',
   'c:\\users\\user\\appdata\\local\\programs\\python\\python38-32\\lib\\site-packages\\docx\\oxml\\document.py',
   'PYMODULE'),
  ('docx.oxml.coreprops',
   'c:\\users\\user\\appdata\\local\\programs\\python\\python38-32\\lib\\site-packages\\docx\\oxml\\coreprops.py',
   'PYMODULE'),
  ('docx.oxml.shared',
   'c:\\users\\user\\appdata\\local\\programs\\python\\python38-32\\lib\\site-packages\\docx\\oxml\\shared.py',
   'PYMODULE'),
  ('docx.oxml.ns',
   'c:\\users\\user\\appdata\\local\\programs\\python\\python38-32\\lib\\site-packages\\docx\\oxml\\ns.py',
   'PYMODULE'),
  ('docx.opc.packuri',
   'c:\\users\\user\\appdata\\local\\programs\\python\\python38-32\\lib\\site-packages\\docx\\opc\\packuri.py',
   'PYMODULE'),
  ('docx.opc',
   'c:\\users\\user\\appdata\\local\\programs\\python\\python38-32\\lib\\site-packages\\docx\\opc\\__init__.py',
   'PYMODULE'),
  ('docx.parts.settings',
   'c:\\users\\user\\appdata\\local\\programs\\python\\python38-32\\lib\\site-packages\\docx\\parts\\settings.py',
   'PYMODULE'),
  ('docx.settings',
   'c:\\users\\user\\appdata\\local\\programs\\python\\python38-32\\lib\\site-packages\\docx\\settings.py',
   'PYMODULE'),
  ('docx.parts.numbering',
   'c:\\users\\user\\appdata\\local\\programs\\python\\python38-32\\lib\\site-packages\\docx\\parts\\numbering.py',
   'PYMODULE'),
  ('docx.parts.image',
   'c:\\users\\user\\appdata\\local\\programs\\python\\python38-32\\lib\\site-packages\\docx\\parts\\image.py',
   'PYMODULE'),
  ('docx.image.image',
   'c:\\users\\user\\appdata\\local\\programs\\python\\python38-32\\lib\\site-packages\\docx\\image\\image.py',
   'PYMODULE'),
  ('docx.image',
   'c:\\users\\user\\appdata\\local\\programs\\python\\python38-32\\lib\\site-packages\\docx\\image\\__init__.py',
   'PYMODULE'),
  ('docx.image.tiff',
   'c:\\users\\user\\appdata\\local\\programs\\python\\python38-32\\lib\\site-packages\\docx\\image\\tiff.py',
   'PYMODULE'),
  ('docx.image.helpers',
   'c:\\users\\user\\appdata\\local\\programs\\python\\python38-32\\lib\\site-packages\\docx\\image\\helpers.py',
   'PYMODULE'),
  ('docx.image.constants',
   'c:\\users\\user\\appdata\\local\\programs\\python\\python38-32\\lib\\site-packages\\docx\\image\\constants.py',
   'PYMODULE'),
  ('docx.image.png',
   'c:\\users\\user\\appdata\\local\\programs\\python\\python38-32\\lib\\site-packages\\docx\\image\\png.py',
   'PYMODULE'),
  ('docx.image.jpeg',
   'c:\\users\\user\\appdata\\local\\programs\\python\\python38-32\\lib\\site-packages\\docx\\image\\jpeg.py',
   'PYMODULE'),
  ('docx.image.gif',
   'c:\\users\\user\\appdata\\local\\programs\\python\\python38-32\\lib\\site-packages\\docx\\image\\gif.py',
   'PYMODULE'),
  ('docx.image.bmp',
   'c:\\users\\user\\appdata\\local\\programs\\python\\python38-32\\lib\\site-packages\\docx\\image\\bmp.py',
   'PYMODULE'),
  ('docx.image.exceptions',
   'c:\\users\\user\\appdata\\local\\programs\\python\\python38-32\\lib\\site-packages\\docx\\image\\exceptions.py',
   'PYMODULE'),
  ('docx.parts.hdrftr',
   'c:\\users\\user\\appdata\\local\\programs\\python\\python38-32\\lib\\site-packages\\docx\\parts\\hdrftr.py',
   'PYMODULE'),
  ('docx.parts.story',
   'c:\\users\\user\\appdata\\local\\programs\\python\\python38-32\\lib\\site-packages\\docx\\parts\\story.py',
   'PYMODULE'),
  ('docx.parts.document',
   'c:\\users\\user\\appdata\\local\\programs\\python\\python38-32\\lib\\site-packages\\docx\\parts\\document.py',
   'PYMODULE'),
  ('docx.shape',
   'c:\\users\\user\\appdata\\local\\programs\\python\\python38-32\\lib\\site-packages\\docx\\shape.py',
   'PYMODULE'),
  ('docx.enum.shape',
   'c:\\users\\user\\appdata\\local\\programs\\python\\python38-32\\lib\\site-packages\\docx\\enum\\shape.py',
   'PYMODULE'),
  ('docx.document',
   'c:\\users\\user\\appdata\\local\\programs\\python\\python38-32\\lib\\site-packages\\docx\\document.py',
   'PYMODULE'),
  ('docx.section',
   'c:\\users\\user\\appdata\\local\\programs\\python\\python38-32\\lib\\site-packages\\docx\\section.py',
   'PYMODULE'),
  ('docx.blkcntnr',
   'c:\\users\\user\\appdata\\local\\programs\\python\\python38-32\\lib\\site-packages\\docx\\blkcntnr.py',
   'PYMODULE'),
  ('docx.table',
   'c:\\users\\user\\appdata\\local\\programs\\python\\python38-32\\lib\\site-packages\\docx\\table.py',
   'PYMODULE'),
  ('docx.text.paragraph',
   'c:\\users\\user\\appdata\\local\\programs\\python\\python38-32\\lib\\site-packages\\docx\\text\\paragraph.py',
   'PYMODULE'),
  ('docx.text.run',
   'c:\\users\\user\\appdata\\local\\programs\\python\\python38-32\\lib\\site-packages\\docx\\text\\run.py',
   'PYMODULE'),
  ('docx.opc.parts.coreprops',
   'c:\\users\\user\\appdata\\local\\programs\\python\\python38-32\\lib\\site-packages\\docx\\opc\\parts\\coreprops.py',
   'PYMODULE'),
  ('docx.opc.parts',
   'c:\\users\\user\\appdata\\local\\programs\\python\\python38-32\\lib\\site-packages\\docx\\opc\\parts\\__init__.py',
   'PYMODULE'),
  ('docx.opc.coreprops',
   'c:\\users\\user\\appdata\\local\\programs\\python\\python38-32\\lib\\site-packages\\docx\\opc\\coreprops.py',
   'PYMODULE'),
  ('docx.opc.part',
   'c:\\users\\user\\appdata\\local\\programs\\python\\python38-32\\lib\\site-packages\\docx\\opc\\part.py',
   'PYMODULE'),
  ('docx.opc.shared',
   'c:\\users\\user\\appdata\\local\\programs\\python\\python38-32\\lib\\site-packages\\docx\\opc\\shared.py',
   'PYMODULE'),
  ('docx.opc.rel',
   'c:\\users\\user\\appdata\\local\\programs\\python\\python38-32\\lib\\site-packages\\docx\\opc\\rel.py',
   'PYMODULE'),
  ('docx.opc.oxml',
   'c:\\users\\user\\appdata\\local\\programs\\python\\python38-32\\lib\\site-packages\\docx\\opc\\oxml.py',
   'PYMODULE'),
  ('docx.opc.compat',
   'c:\\users\\user\\appdata\\local\\programs\\python\\python38-32\\lib\\site-packages\\docx\\opc\\compat.py',
   'PYMODULE'),
  ('docx.opc.constants',
   'c:\\users\\user\\appdata\\local\\programs\\python\\python38-32\\lib\\site-packages\\docx\\opc\\constants.py',
   'PYMODULE'),
  ('docx.api',
   'c:\\users\\user\\appdata\\local\\programs\\python\\python38-32\\lib\\site-packages\\docx\\api.py',
   'PYMODULE'),
  ('docx.package',
   'c:\\users\\user\\appdata\\local\\programs\\python\\python38-32\\lib\\site-packages\\docx\\package.py',
   'PYMODULE'),
  ('docx.opc.package',
   'c:\\users\\user\\appdata\\local\\programs\\python\\python38-32\\lib\\site-packages\\docx\\opc\\package.py',
   'PYMODULE'),
  ('docx.opc.pkgwriter',
   'c:\\users\\user\\appdata\\local\\programs\\python\\python38-32\\lib\\site-packages\\docx\\opc\\pkgwriter.py',
   'PYMODULE'),
  ('docx.opc.spec',
   'c:\\users\\user\\appdata\\local\\programs\\python\\python38-32\\lib\\site-packages\\docx\\opc\\spec.py',
   'PYMODULE'),
  ('docx.opc.phys_pkg',
   'c:\\users\\user\\appdata\\local\\programs\\python\\python38-32\\lib\\site-packages\\docx\\opc\\phys_pkg.py',
   'PYMODULE'),
  ('docx.opc.exceptions',
   'c:\\users\\user\\appdata\\local\\programs\\python\\python38-32\\lib\\site-packages\\docx\\opc\\exceptions.py',
   'PYMODULE'),
  ('docx.opc.pkgreader',
   'c:\\users\\user\\appdata\\local\\programs\\python\\python38-32\\lib\\site-packages\\docx\\opc\\pkgreader.py',
   'PYMODULE'),
  ('comtypes.client',
   'c:\\users\\user\\appdata\\local\\programs\\python\\python38-32\\lib\\site-packages\\comtypes\\client\\__init__.py',
   'PYMODULE'),
  ('comtypes.gen',
   'c:\\users\\user\\appdata\\local\\programs\\python\\python38-32\\lib\\site-packages\\comtypes\\gen\\__init__.py',
   'PYMODULE'),
  ('comtypes.client._code_cache',
   'c:\\users\\user\\appdata\\local\\programs\\python\\python38-32\\lib\\site-packages\\comtypes\\client\\_code_cache.py',
   'PYMODULE'),
  ('comtypes.client._generate',
   'c:\\users\\user\\appdata\\local\\programs\\python\\python38-32\\lib\\site-packages\\comtypes\\client\\_generate.py',
   'PYMODULE'),
  ('comtypes.tools.tlbparser',
   'c:\\users\\user\\appdata\\local\\programs\\python\\python38-32\\lib\\site-packages\\comtypes\\tools\\tlbparser.py',
   'PYMODULE'),
  ('comtypes.persist',
   'c:\\users\\user\\appdata\\local\\programs\\python\\python38-32\\lib\\site-packages\\comtypes\\persist.py',
   'PYMODULE'),
  ('comtypes.GUID',
   'c:\\users\\user\\appdata\\local\\programs\\python\\python38-32\\lib\\site-packages\\comtypes\\GUID.py',
   'PYMODULE'),
  ('comtypes.tools.typedesc',
   'c:\\users\\user\\appdata\\local\\programs\\python\\python38-32\\lib\\site-packages\\comtypes\\tools\\typedesc.py',
   'PYMODULE'),
  ('comtypes.tools.typedesc_base',
   'c:\\users\\user\\appdata\\local\\programs\\python\\python38-32\\lib\\site-packages\\comtypes\\tools\\typedesc_base.py',
   'PYMODULE'),
  ('comtypes.tools',
   'c:\\users\\user\\appdata\\local\\programs\\python\\python38-32\\lib\\site-packages\\comtypes\\tools\\__init__.py',
   'PYMODULE'),
  ('comtypes.tools.codegenerator',
   'c:\\users\\user\\appdata\\local\\programs\\python\\python38-32\\lib\\site-packages\\comtypes\\tools\\codegenerator.py',
   'PYMODULE'),
  ('comtypes.client._events',
   'c:\\users\\user\\appdata\\local\\programs\\python\\python38-32\\lib\\site-packages\\comtypes\\client\\_events.py',
   'PYMODULE'),
  ('comtypes._comobject',
   'c:\\users\\user\\appdata\\local\\programs\\python\\python38-32\\lib\\site-packages\\comtypes\\_comobject.py',
   'PYMODULE'),
  ('comtypes.messageloop',
   'c:\\users\\user\\appdata\\local\\programs\\python\\python38-32\\lib\\site-packages\\comtypes\\messageloop.py',
   'PYMODULE'),
  ('comtypes.errorinfo',
   'c:\\users\\user\\appdata\\local\\programs\\python\\python38-32\\lib\\site-packages\\comtypes\\errorinfo.py',
   'PYMODULE'),
  ('comtypes.connectionpoints',
   'c:\\users\\user\\appdata\\local\\programs\\python\\python38-32\\lib\\site-packages\\comtypes\\connectionpoints.py',
   'PYMODULE'),
  ('comtypes.client.dynamic',
   'c:\\users\\user\\appdata\\local\\programs\\python\\python38-32\\lib\\site-packages\\comtypes\\client\\dynamic.py',
   'PYMODULE'),
  ('comtypes.client.lazybind',
   'c:\\users\\user\\appdata\\local\\programs\\python\\python38-32\\lib\\site-packages\\comtypes\\client\\lazybind.py',
   'PYMODULE'),
  ('comtypes.typeinfo',
   'c:\\users\\user\\appdata\\local\\programs\\python\\python38-32\\lib\\site-packages\\comtypes\\typeinfo.py',
   'PYMODULE'),
  ('comtypes.automation',
   'c:\\users\\user\\appdata\\local\\programs\\python\\python38-32\\lib\\site-packages\\comtypes\\automation.py',
   'PYMODULE'),
  ('comtypes.safearray',
   'c:\\users\\user\\appdata\\local\\programs\\python\\python38-32\\lib\\site-packages\\comtypes\\safearray.py',
   'PYMODULE'),
  ('comtypes._safearray',
   'c:\\users\\user\\appdata\\local\\programs\\python\\python38-32\\lib\\site-packages\\comtypes\\_safearray.py',
   'PYMODULE'),
  ('comtypes.npsupport',
   'c:\\users\\user\\appdata\\local\\programs\\python\\python38-32\\lib\\site-packages\\comtypes\\npsupport.py',
   'PYMODULE'),
  ('comtypes.patcher',
   'c:\\users\\user\\appdata\\local\\programs\\python\\python38-32\\lib\\site-packages\\comtypes\\patcher.py',
   'PYMODULE'),
  ('comtypes.hresult',
   'c:\\users\\user\\appdata\\local\\programs\\python\\python38-32\\lib\\site-packages\\comtypes\\hresult.py',
   'PYMODULE'),
  ('comtypes',
   'c:\\users\\user\\appdata\\local\\programs\\python\\python38-32\\lib\\site-packages\\comtypes\\__init__.py',
   'PYMODULE'),
  ('comtypes._meta',
   'c:\\users\\user\\appdata\\local\\programs\\python\\python38-32\\lib\\site-packages\\comtypes\\_meta.py',
   'PYMODULE'),
  ('comtypes.server',
   'c:\\users\\user\\appdata\\local\\programs\\python\\python38-32\\lib\\site-packages\\comtypes\\server\\__init__.py',
   'PYMODULE'),
  ('win32com.client',
   'c:\\users\\user\\appdata\\local\\programs\\python\\python38-32\\lib\\site-packages\\win32com\\client\\__init__.py',
   'PYMODULE'),
  ('win32com.client.dynamic',
   'c:\\users\\user\\appdata\\local\\programs\\python\\python38-32\\lib\\site-packages\\win32com\\client\\dynamic.py',
   'PYMODULE'),
  ('data_extractor',
   'C:\\Users\\User\\Documents\\Temp\\rental\\data_extractor.py',
   'PYMODULE'),
  ('selenium.webdriver.firefox.firefox_binary',
   'c:\\users\\user\\appdata\\local\\programs\\python\\python38-32\\lib\\site-packages\\selenium\\webdriver\\firefox\\firefox_binary.py',
   'PYMODULE'),
  ('selenium.webdriver.firefox',
   'c:\\users\\user\\appdata\\local\\programs\\python\\python38-32\\lib\\site-packages\\selenium\\webdriver\\firefox\\__init__.py',
   'PYMODULE'),
  ('selenium.webdriver.common.utils',
   'c:\\users\\user\\appdata\\local\\programs\\python\\python38-32\\lib\\site-packages\\selenium\\webdriver\\common\\utils.py',
   'PYMODULE'),
  ('selenium.webdriver.common.keys',
   'c:\\users\\user\\appdata\\local\\programs\\python\\python38-32\\lib\\site-packages\\selenium\\webdriver\\common\\keys.py',
   'PYMODULE'),
  ('selenium.webdriver.common',
   'c:\\users\\user\\appdata\\local\\programs\\python\\python38-32\\lib\\site-packages\\selenium\\webdriver\\common\\__init__.py',
   'PYMODULE'),
  ('selenium.webdriver.common.service',
   'c:\\users\\user\\appdata\\local\\programs\\python\\python38-32\\lib\\site-packages\\selenium\\webdriver\\common\\service.py',
   'PYMODULE'),
  ('selenium.common.exceptions',
   'c:\\users\\user\\appdata\\local\\programs\\python\\python38-32\\lib\\site-packages\\selenium\\common\\exceptions.py',
   'PYMODULE'),
  ('selenium.common',
   'c:\\users\\user\\appdata\\local\\programs\\python\\python38-32\\lib\\site-packages\\selenium\\common\\__init__.py',
   'PYMODULE'),
  ('selenium.webdriver.support.expected_conditions',
   'c:\\users\\user\\appdata\\local\\programs\\python\\python38-32\\lib\\site-packages\\selenium\\webdriver\\support\\expected_conditions.py',
   'PYMODULE'),
  ('selenium.webdriver.remote.webdriver',
   'c:\\users\\user\\appdata\\local\\programs\\python\\python38-32\\lib\\site-packages\\selenium\\webdriver\\remote\\webdriver.py',
   'PYMODULE'),
  ('selenium.webdriver.remote',
   'c:\\users\\user\\appdata\\local\\programs\\python\\python38-32\\lib\\site-packages\\selenium\\webdriver\\remote\\__init__.py',
   'PYMODULE'),
  ('selenium.webdriver.remote.utils',
   'c:\\users\\user\\appdata\\local\\programs\\python\\python38-32\\lib\\site-packages\\selenium\\webdriver\\remote\\utils.py',
   'PYMODULE'),
  ('json',
   'c:\\users\\user\\appdata\\local\\programs\\python\\python38-32\\lib\\json\\__init__.py',
   'PYMODULE'),
  ('json.encoder',
   'c:\\users\\user\\appdata\\local\\programs\\python\\python38-32\\lib\\json\\encoder.py',
   'PYMODULE'),
  ('json.decoder',
   'c:\\users\\user\\appdata\\local\\programs\\python\\python38-32\\lib\\json\\decoder.py',
   'PYMODULE'),
  ('json.scanner',
   'c:\\users\\user\\appdata\\local\\programs\\python\\python38-32\\lib\\json\\scanner.py',
   'PYMODULE'),
  ('selenium.webdriver.common.html5.application_cache',
   'c:\\users\\user\\appdata\\local\\programs\\python\\python38-32\\lib\\site-packages\\selenium\\webdriver\\common\\html5\\application_cache.py',
   'PYMODULE'),
  ('selenium.webdriver.common.html5',
   'c:\\users\\user\\appdata\\local\\programs\\python\\python38-32\\lib\\site-packages\\selenium\\webdriver\\common\\html5\\__init__.py',
   'PYMODULE'),
  ('selenium.webdriver.remote.file_detector',
   'c:\\users\\user\\appdata\\local\\programs\\python\\python38-32\\lib\\site-packages\\selenium\\webdriver\\remote\\file_detector.py',
   'PYMODULE'),
  ('selenium.webdriver.remote.mobile',
   'c:\\users\\user\\appdata\\local\\programs\\python\\python38-32\\lib\\site-packages\\selenium\\webdriver\\remote\\mobile.py',
   'PYMODULE'),
  ('selenium.webdriver.remote.switch_to',
   'c:\\users\\user\\appdata\\local\\programs\\python\\python38-32\\lib\\site-packages\\selenium\\webdriver\\remote\\switch_to.py',
   'PYMODULE'),
  ('selenium.webdriver.common.alert',
   'c:\\users\\user\\appdata\\local\\programs\\python\\python38-32\\lib\\site-packages\\selenium\\webdriver\\common\\alert.py',
   'PYMODULE'),
  ('selenium.webdriver.remote.errorhandler',
   'c:\\users\\user\\appdata\\local\\programs\\python\\python38-32\\lib\\site-packages\\selenium\\webdriver\\remote\\errorhandler.py',
   'PYMODULE'),
  ('selenium.webdriver.remote.remote_connection',
   'c:\\users\\user\\appdata\\local\\programs\\python\\python38-32\\lib\\site-packages\\selenium\\webdriver\\remote\\remote_connection.py',
   'PYMODULE'),
  ('urllib3',
   'c:\\users\\user\\appdata\\local\\programs\\python\\python38-32\\lib\\site-packages\\urllib3\\__init__.py',
   'PYMODULE'),
  ('urllib3.util.retry',
   'c:\\users\\user\\appdata\\local\\programs\\python\\python38-32\\lib\\site-packages\\urllib3\\util\\retry.py',
   'PYMODULE'),
  ('urllib3.util',
   'c:\\users\\user\\appdata\\local\\programs\\python\\python38-32\\lib\\site-packages\\urllib3\\util\\__init__.py',
   'PYMODULE'),
  ('urllib3.util.wait',
   'c:\\users\\user\\appdata\\local\\programs\\python\\python38-32\\lib\\site-packages\\urllib3\\util\\wait.py',
   'PYMODULE'),
  ('urllib3.util.ssl_',
   'c:\\users\\user\\appdata\\local\\programs\\python\\python38-32\\lib\\site-packages\\urllib3\\util\\ssl_.py',
   'PYMODULE'),
  ('urllib3.util.response',
   'c:\\users\\user\\appdata\\local\\programs\\python\\python38-32\\lib\\site-packages\\urllib3\\util\\response.py',
   'PYMODULE'),
  ('urllib3.util.connection',
   'c:\\users\\user\\appdata\\local\\programs\\python\\python38-32\\lib\\site-packages\\urllib3\\util\\connection.py',
   'PYMODULE'),
  ('urllib3.contrib._appengine_environ',
   'c:\\users\\user\\appdata\\local\\programs\\python\\python38-32\\lib\\site-packages\\urllib3\\contrib\\_appengine_environ.py',
   'PYMODULE'),
  ('urllib3.contrib',
   'c:\\users\\user\\appdata\\local\\programs\\python\\python38-32\\lib\\site-packages\\urllib3\\contrib\\__init__.py',
   'PYMODULE'),
  ('urllib3.packages.six',
   'c:\\users\\user\\appdata\\local\\programs\\python\\python38-32\\lib\\site-packages\\urllib3\\packages\\six.py',
   'PYMODULE'),
  ('urllib3.packages',
   'c:\\users\\user\\appdata\\local\\programs\\python\\python38-32\\lib\\site-packages\\urllib3\\packages\\__init__.py',
   'PYMODULE'),
  ('urllib3.packages.ssl_match_hostname',
   'c:\\users\\user\\appdata\\local\\programs\\python\\python38-32\\lib\\site-packages\\urllib3\\packages\\ssl_match_hostname\\__init__.py',
   'PYMODULE'),
  ('urllib3.packages.ssl_match_hostname._implementation',
   'c:\\users\\user\\appdata\\local\\programs\\python\\python38-32\\lib\\site-packages\\urllib3\\packages\\ssl_match_hostname\\_implementation.py',
   'PYMODULE'),
  ('ipaddress',
   'c:\\users\\user\\appdata\\local\\programs\\python\\python38-32\\lib\\ipaddress.py',
   'PYMODULE'),
  ('urllib3.util.timeout',
   'c:\\users\\user\\appdata\\local\\programs\\python\\python38-32\\lib\\site-packages\\urllib3\\util\\timeout.py',
   'PYMODULE'),
  ('urllib3.util.url',
   'c:\\users\\user\\appdata\\local\\programs\\python\\python38-32\\lib\\site-packages\\urllib3\\util\\url.py',
   'PYMODULE'),
  ('urllib3.util.request',
   'c:\\users\\user\\appdata\\local\\programs\\python\\python38-32\\lib\\site-packages\\urllib3\\util\\request.py',
   'PYMODULE'),
  ('urllib3.response',
   'c:\\users\\user\\appdata\\local\\programs\\python\\python38-32\\lib\\site-packages\\urllib3\\response.py',
   'PYMODULE'),
  ('urllib3.connection',
   'c:\\users\\user\\appdata\\local\\programs\\python\\python38-32\\lib\\site-packages\\urllib3\\connection.py',
   'PYMODULE'),
  ('urllib3._collections',
   'c:\\users\\user\\appdata\\local\\programs\\python\\python38-32\\lib\\site-packages\\urllib3\\_collections.py',
   'PYMODULE'),
  ('urllib3.poolmanager',
   'c:\\users\\user\\appdata\\local\\programs\\python\\python38-32\\lib\\site-packages\\urllib3\\poolmanager.py',
   'PYMODULE'),
  ('urllib3.request',
   'c:\\users\\user\\appdata\\local\\programs\\python\\python38-32\\lib\\site-packages\\urllib3\\request.py',
   'PYMODULE'),
  ('urllib3.filepost',
   'c:\\users\\user\\appdata\\local\\programs\\python\\python38-32\\lib\\site-packages\\urllib3\\filepost.py',
   'PYMODULE'),
  ('urllib3.fields',
   'c:\\users\\user\\appdata\\local\\programs\\python\\python38-32\\lib\\site-packages\\urllib3\\fields.py',
   'PYMODULE'),
  ('urllib3.exceptions',
   'c:\\users\\user\\appdata\\local\\programs\\python\\python38-32\\lib\\site-packages\\urllib3\\exceptions.py',
   'PYMODULE'),
  ('urllib3.connectionpool',
   'c:\\users\\user\\appdata\\local\\programs\\python\\python38-32\\lib\\site-packages\\urllib3\\connectionpool.py',
   'PYMODULE'),
  ('urllib3.util.queue',
   'c:\\users\\user\\appdata\\local\\programs\\python\\python38-32\\lib\\site-packages\\urllib3\\util\\queue.py',
   'PYMODULE'),
  ('selenium.webdriver.remote.webelement',
   'c:\\users\\user\\appdata\\local\\programs\\python\\python38-32\\lib\\site-packages\\selenium\\webdriver\\remote\\webelement.py',
   'PYMODULE'),
  ('selenium.webdriver.remote.command',
   'c:\\users\\user\\appdata\\local\\programs\\python\\python38-32\\lib\\site-packages\\selenium\\webdriver\\remote\\command.py',
   'PYMODULE'),
  ('selenium.webdriver.support',
   'c:\\users\\user\\appdata\\local\\programs\\python\\python38-32\\lib\\site-packages\\selenium\\webdriver\\support\\__init__.py',
   'PYMODULE'),
  ('selenium.webdriver.support.ui',
   'c:\\users\\user\\appdata\\local\\programs\\python\\python38-32\\lib\\site-packages\\selenium\\webdriver\\support\\ui.py',
   'PYMODULE'),
  ('selenium.webdriver.support.wait',
   'c:\\users\\user\\appdata\\local\\programs\\python\\python38-32\\lib\\site-packages\\selenium\\webdriver\\support\\wait.py',
   'PYMODULE'),
  ('selenium.webdriver.support.select',
   'c:\\users\\user\\appdata\\local\\programs\\python\\python38-32\\lib\\site-packages\\selenium\\webdriver\\support\\select.py',
   'PYMODULE'),
  ('selenium.webdriver.common.by',
   'c:\\users\\user\\appdata\\local\\programs\\python\\python38-32\\lib\\site-packages\\selenium\\webdriver\\common\\by.py',
   'PYMODULE'),
  ('selenium.webdriver',
   'c:\\users\\user\\appdata\\local\\programs\\python\\python38-32\\lib\\site-packages\\selenium\\webdriver\\__init__.py',
   'PYMODULE'),
  ('selenium.webdriver.common.proxy',
   'c:\\users\\user\\appdata\\local\\programs\\python\\python38-32\\lib\\site-packages\\selenium\\webdriver\\common\\proxy.py',
   'PYMODULE'),
  ('selenium.webdriver.common.touch_actions',
   'c:\\users\\user\\appdata\\local\\programs\\python\\python38-32\\lib\\site-packages\\selenium\\webdriver\\common\\touch_actions.py',
   'PYMODULE'),
  ('selenium.webdriver.common.action_chains',
   'c:\\users\\user\\appdata\\local\\programs\\python\\python38-32\\lib\\site-packages\\selenium\\webdriver\\common\\action_chains.py',
   'PYMODULE'),
  ('selenium.webdriver.common.actions.action_builder',
   'c:\\users\\user\\appdata\\local\\programs\\python\\python38-32\\lib\\site-packages\\selenium\\webdriver\\common\\actions\\action_builder.py',
   'PYMODULE'),
  ('selenium.webdriver.common.actions.pointer_input',
   'c:\\users\\user\\appdata\\local\\programs\\python\\python38-32\\lib\\site-packages\\selenium\\webdriver\\common\\actions\\pointer_input.py',
   'PYMODULE'),
  ('selenium.webdriver.common.actions.input_device',
   'c:\\users\\user\\appdata\\local\\programs\\python\\python38-32\\lib\\site-packages\\selenium\\webdriver\\common\\actions\\input_device.py',
   'PYMODULE'),
  ('uuid',
   'c:\\users\\user\\appdata\\local\\programs\\python\\python38-32\\lib\\uuid.py',
   'PYMODULE'),
  ('netbios',
   'c:\\users\\user\\appdata\\local\\programs\\python\\python38-32\\lib\\site-packages\\win32\\lib\\netbios.py',
   'PYMODULE'),
  ('selenium.webdriver.common.actions.pointer_actions',
   'c:\\users\\user\\appdata\\local\\programs\\python\\python38-32\\lib\\site-packages\\selenium\\webdriver\\common\\actions\\pointer_actions.py',
   'PYMODULE'),
  ('selenium.webdriver.common.actions.mouse_button',
   'c:\\users\\user\\appdata\\local\\programs\\python\\python38-32\\lib\\site-packages\\selenium\\webdriver\\common\\actions\\mouse_button.py',
   'PYMODULE'),
  ('selenium.webdriver.common.actions.key_input',
   'c:\\users\\user\\appdata\\local\\programs\\python\\python38-32\\lib\\site-packages\\selenium\\webdriver\\common\\actions\\key_input.py',
   'PYMODULE'),
  ('selenium.webdriver.common.actions.key_actions',
   'c:\\users\\user\\appdata\\local\\programs\\python\\python38-32\\lib\\site-packages\\selenium\\webdriver\\common\\actions\\key_actions.py',
   'PYMODULE'),
  ('selenium.webdriver.common.actions.interaction',
   'c:\\users\\user\\appdata\\local\\programs\\python\\python38-32\\lib\\site-packages\\selenium\\webdriver\\common\\actions\\interaction.py',
   'PYMODULE'),
  ('selenium.webdriver.common.actions',
   'c:\\users\\user\\appdata\\local\\programs\\python\\python38-32\\lib\\site-packages\\selenium\\webdriver\\common\\actions\\__init__.py',
   'PYMODULE'),
  ('selenium.webdriver.common.desired_capabilities',
   'c:\\users\\user\\appdata\\local\\programs\\python\\python38-32\\lib\\site-packages\\selenium\\webdriver\\common\\desired_capabilities.py',
   'PYMODULE'),
  ('selenium.webdriver.webkitgtk.options',
   'c:\\users\\user\\appdata\\local\\programs\\python\\python38-32\\lib\\site-packages\\selenium\\webdriver\\webkitgtk\\options.py',
   'PYMODULE'),
  ('selenium.webdriver.webkitgtk',
   'c:\\users\\user\\appdata\\local\\programs\\python\\python38-32\\lib\\site-packages\\selenium\\webdriver\\webkitgtk\\__init__.py',
   'PYMODULE'),
  ('selenium.webdriver.webkitgtk.webdriver',
   'c:\\users\\user\\appdata\\local\\programs\\python\\python38-32\\lib\\site-packages\\selenium\\webdriver\\webkitgtk\\webdriver.py',
   'PYMODULE'),
  ('selenium.webdriver.webkitgtk.service',
   'c:\\users\\user\\appdata\\local\\programs\\python\\python38-32\\lib\\site-packages\\selenium\\webdriver\\webkitgtk\\service.py',
   'PYMODULE'),
  ('selenium.webdriver.android.webdriver',
   'c:\\users\\user\\appdata\\local\\programs\\python\\python38-32\\lib\\site-packages\\selenium\\webdriver\\android\\webdriver.py',
   'PYMODULE'),
  ('selenium.webdriver.android',
   'c:\\users\\user\\appdata\\local\\programs\\python\\python38-32\\lib\\site-packages\\selenium\\webdriver\\android\\__init__.py',
   'PYMODULE'),
  ('selenium.webdriver.phantomjs.webdriver',
   'c:\\users\\user\\appdata\\local\\programs\\python\\python38-32\\lib\\site-packages\\selenium\\webdriver\\phantomjs\\webdriver.py',
   'PYMODULE'),
  ('selenium.webdriver.phantomjs',
   'c:\\users\\user\\appdata\\local\\programs\\python\\python38-32\\lib\\site-packages\\selenium\\webdriver\\phantomjs\\__init__.py',
   'PYMODULE'),
  ('selenium.webdriver.phantomjs.service',
   'c:\\users\\user\\appdata\\local\\programs\\python\\python38-32\\lib\\site-packages\\selenium\\webdriver\\phantomjs\\service.py',
   'PYMODULE'),
  ('selenium.webdriver.blackberry.webdriver',
   'c:\\users\\user\\appdata\\local\\programs\\python\\python38-32\\lib\\site-packages\\selenium\\webdriver\\blackberry\\webdriver.py',
   'PYMODULE'),
  ('selenium.webdriver.blackberry',
   'c:\\users\\user\\appdata\\local\\programs\\python\\python38-32\\lib\\site-packages\\selenium\\webdriver\\blackberry\\__init__.py',
   'PYMODULE'),
  ('selenium.webdriver.safari.webdriver',
   'c:\\users\\user\\appdata\\local\\programs\\python\\python38-32\\lib\\site-packages\\selenium\\webdriver\\safari\\webdriver.py',
   'PYMODULE'),
  ('selenium.webdriver.safari',
   'c:\\users\\user\\appdata\\local\\programs\\python\\python38-32\\lib\\site-packages\\selenium\\webdriver\\safari\\__init__.py',
   'PYMODULE'),
  ('selenium.webdriver.safari.remote_connection',
   'c:\\users\\user\\appdata\\local\\programs\\python\\python38-32\\lib\\site-packages\\selenium\\webdriver\\safari\\remote_connection.py',
   'PYMODULE'),
  ('selenium.webdriver.safari.service',
   'c:\\users\\user\\appdata\\local\\programs\\python\\python38-32\\lib\\site-packages\\selenium\\webdriver\\safari\\service.py',
   'PYMODULE'),
  ('selenium.webdriver.opera.webdriver',
   'c:\\users\\user\\appdata\\local\\programs\\python\\python38-32\\lib\\site-packages\\selenium\\webdriver\\opera\\webdriver.py',
   'PYMODULE'),
  ('selenium.webdriver.opera',
   'c:\\users\\user\\appdata\\local\\programs\\python\\python38-32\\lib\\site-packages\\selenium\\webdriver\\opera\\__init__.py',
   'PYMODULE'),
  ('selenium.webdriver.opera.options',
   'c:\\users\\user\\appdata\\local\\programs\\python\\python38-32\\lib\\site-packages\\selenium\\webdriver\\opera\\options.py',
   'PYMODULE'),
  ('selenium.webdriver.edge.webdriver',
   'c:\\users\\user\\appdata\\local\\programs\\python\\python38-32\\lib\\site-packages\\selenium\\webdriver\\edge\\webdriver.py',
   'PYMODULE'),
  ('selenium.webdriver.edge',
   'c:\\users\\user\\appdata\\local\\programs\\python\\python38-32\\lib\\site-packages\\selenium\\webdriver\\edge\\__init__.py',
   'PYMODULE'),
  ('selenium.webdriver.edge.service',
   'c:\\users\\user\\appdata\\local\\programs\\python\\python38-32\\lib\\site-packages\\selenium\\webdriver\\edge\\service.py',
   'PYMODULE'),
  ('selenium.webdriver.ie.options',
   'c:\\users\\user\\appdata\\local\\programs\\python\\python38-32\\lib\\site-packages\\selenium\\webdriver\\ie\\options.py',
   'PYMODULE'),
  ('selenium.webdriver.ie',
   'c:\\users\\user\\appdata\\local\\programs\\python\\python38-32\\lib\\site-packages\\selenium\\webdriver\\ie\\__init__.py',
   'PYMODULE'),
  ('selenium.webdriver.ie.webdriver',
   'c:\\users\\user\\appdata\\local\\programs\\python\\python38-32\\lib\\site-packages\\selenium\\webdriver\\ie\\webdriver.py',
   'PYMODULE'),
  ('selenium.webdriver.ie.service',
   'c:\\users\\user\\appdata\\local\\programs\\python\\python38-32\\lib\\site-packages\\selenium\\webdriver\\ie\\service.py',
   'PYMODULE'),
  ('selenium.webdriver.chrome.options',
   'c:\\users\\user\\appdata\\local\\programs\\python\\python38-32\\lib\\site-packages\\selenium\\webdriver\\chrome\\options.py',
   'PYMODULE'),
  ('selenium.webdriver.chrome',
   'c:\\users\\user\\appdata\\local\\programs\\python\\python38-32\\lib\\site-packages\\selenium\\webdriver\\chrome\\__init__.py',
   'PYMODULE'),
  ('selenium.webdriver.chrome.webdriver',
   'c:\\users\\user\\appdata\\local\\programs\\python\\python38-32\\lib\\site-packages\\selenium\\webdriver\\chrome\\webdriver.py',
   'PYMODULE'),
  ('selenium.webdriver.chrome.service',
   'c:\\users\\user\\appdata\\local\\programs\\python\\python38-32\\lib\\site-packages\\selenium\\webdriver\\chrome\\service.py',
   'PYMODULE'),
  ('selenium.webdriver.chrome.remote_connection',
   'c:\\users\\user\\appdata\\local\\programs\\python\\python38-32\\lib\\site-packages\\selenium\\webdriver\\chrome\\remote_connection.py',
   'PYMODULE'),
  ('selenium.webdriver.firefox.options',
   'c:\\users\\user\\appdata\\local\\programs\\python\\python38-32\\lib\\site-packages\\selenium\\webdriver\\firefox\\options.py',
   'PYMODULE'),
  ('selenium.webdriver.firefox.firefox_profile',
   'c:\\users\\user\\appdata\\local\\programs\\python\\python38-32\\lib\\site-packages\\selenium\\webdriver\\firefox\\firefox_profile.py',
   'PYMODULE'),
  ('xml.dom.minidom',
   'c:\\users\\user\\appdata\\local\\programs\\python\\python38-32\\lib\\xml\\dom\\minidom.py',
   'PYMODULE'),
  ('xml.dom.pulldom',
   'c:\\users\\user\\appdata\\local\\programs\\python\\python38-32\\lib\\xml\\dom\\pulldom.py',
   'PYMODULE'),
  ('xml.dom.expatbuilder',
   'c:\\users\\user\\appdata\\local\\programs\\python\\python38-32\\lib\\xml\\dom\\expatbuilder.py',
   'PYMODULE'),
  ('xml.dom.NodeFilter',
   'c:\\users\\user\\appdata\\local\\programs\\python\\python38-32\\lib\\xml\\dom\\NodeFilter.py',
   'PYMODULE'),
  ('xml.dom.xmlbuilder',
   'c:\\users\\user\\appdata\\local\\programs\\python\\python38-32\\lib\\xml\\dom\\xmlbuilder.py',
   'PYMODULE'),
  ('xml.dom.minicompat',
   'c:\\users\\user\\appdata\\local\\programs\\python\\python38-32\\lib\\xml\\dom\\minicompat.py',
   'PYMODULE'),
  ('xml.dom.domreg',
   'c:\\users\\user\\appdata\\local\\programs\\python\\python38-32\\lib\\xml\\dom\\domreg.py',
   'PYMODULE'),
  ('xml.dom',
   'c:\\users\\user\\appdata\\local\\programs\\python\\python38-32\\lib\\xml\\dom\\__init__.py',
   'PYMODULE'),
  ('selenium.webdriver.firefox.webdriver',
   'c:\\users\\user\\appdata\\local\\programs\\python\\python38-32\\lib\\site-packages\\selenium\\webdriver\\firefox\\webdriver.py',
   'PYMODULE'),
  ('selenium.webdriver.firefox.webelement',
   'c:\\users\\user\\appdata\\local\\programs\\python\\python38-32\\lib\\site-packages\\selenium\\webdriver\\firefox\\webelement.py',
   'PYMODULE'),
  ('selenium.webdriver.firefox.service',
   'c:\\users\\user\\appdata\\local\\programs\\python\\python38-32\\lib\\site-packages\\selenium\\webdriver\\firefox\\service.py',
   'PYMODULE'),
  ('selenium.webdriver.firefox.remote_connection',
   'c:\\users\\user\\appdata\\local\\programs\\python\\python38-32\\lib\\site-packages\\selenium\\webdriver\\firefox\\remote_connection.py',
   'PYMODULE'),
  ('selenium.webdriver.firefox.extension_connection',
   'c:\\users\\user\\appdata\\local\\programs\\python\\python38-32\\lib\\site-packages\\selenium\\webdriver\\firefox\\extension_connection.py',
   'PYMODULE'),
  ('selenium',
   'c:\\users\\user\\appdata\\local\\programs\\python\\python38-32\\lib\\site-packages\\selenium\\__init__.py',
   'PYMODULE'),
  ('csv',
   'c:\\users\\user\\appdata\\local\\programs\\python\\python38-32\\lib\\csv.py',
   'PYMODULE'),
  ('os',
   'c:\\users\\user\\appdata\\local\\programs\\python\\python38-32\\lib\\os.py',
   'PYMODULE')])
